%!PS-Adobe-3.0 EPSF-3.0
%%Title: D:/Zurk/YaDisk/data Mining problems/comunity-detection-diploma/plots/clust_agg_bin_feat_colmlete_mni.eps
%%Creator: matplotlib version 1.4.0, http://matplotlib.org/
%%CreationDate: Sun Apr 12 13:14:15 2015
%%Orientation: portrait
%%BoundingBox: 18 180 594 611
%%EndComments
%%BeginProlog
/mpldict 8 dict def
mpldict begin
/m { moveto } bind def
/l { lineto } bind def
/r { rlineto } bind def
/c { curveto } bind def
/cl { closepath } bind def
/box {
m
1 index 0 r
0 exch r
neg 0 r
cl
} bind def
/clipbox {
box
clip
newpath
} bind def
%!PS-Adobe-3.0 Resource-Font
%%Title: Bitstream Vera Sans
%%Copyright: Copyright (c) 2003 by Bitstream, Inc. All Rights Reserved.
%%Creator: Converted from TrueType to type 3 by PPR
25 dict begin
/_d{bind def}bind def
/_m{moveto}_d
/_l{lineto}_d
/_cl{closepath eofill}_d
/_c{curveto}_d
/_sc{7 -1 roll{setcachedevice}{pop pop pop pop pop pop}ifelse}_d
/_e{exec}_d
/FontName /BitstreamVeraSans-Roman def
/PaintType 0 def
/FontMatrix[.001 0 0 .001 0 0]def
/FontBBox[-183 -236 1287 928]def
/FontType 3 def
/Encoding [ /space /period /zero /one /two /four /six /eight /C /I /M /N /a /b /c /d /e /f /g /i /k /l /m /n /o /p /r /s /t /u /v /w /x /y /z ] def
/FontInfo 10 dict dup begin
/FamilyName (Bitstream Vera Sans) def
/FullName (Bitstream Vera Sans) def
/Notice (Copyright (c) 2003 by Bitstream, Inc. All Rights Reserved. Bitstream Vera is a trademark of Bitstream, Inc.) def
/Weight (Roman) def
/Version (Release 1.10) def
/ItalicAngle 0.0 def
/isFixedPitch false def
/UnderlinePosition -213 def
/UnderlineThickness 143 def
end readonly def
/CharStrings 35 dict dup begin
/space{318 0 0 0 0 0 _sc
}_d
/period{318 0 107 0 210 124 _sc
107 124 _m
210 124 _l
210 0 _l
107 0 _l
107 124 _l
_cl}_d
/zero{636 0 66 -13 570 742 _sc
318 664 _m
267 664 229 639 203 589 _c
177 539 165 464 165 364 _c
165 264 177 189 203 139 _c
229 89 267 64 318 64 _c
369 64 407 89 433 139 _c
458 189 471 264 471 364 _c
471 464 458 539 433 589 _c
407 639 369 664 318 664 _c
318 742 _m
399 742 461 709 505 645 _c
548 580 570 486 570 364 _c
570 241 548 147 505 83 _c
461 19 399 -13 318 -13 _c
236 -13 173 19 130 83 _c
87 147 66 241 66 364 _c
66 486 87 580 130 645 _c
173 709 236 742 318 742 _c
_cl}_d
/one{636 0 110 0 544 729 _sc
124 83 _m
285 83 _l
285 639 _l
110 604 _l
110 694 _l
284 729 _l
383 729 _l
383 83 _l
544 83 _l
544 0 _l
124 0 _l
124 83 _l
_cl}_d
/two{{636 0 73 0 536 742 _sc
192 83 _m
536 83 _l
536 0 _l
73 0 _l
73 83 _l
110 121 161 173 226 239 _c
290 304 331 346 348 365 _c
380 400 402 430 414 455 _c
426 479 433 504 433 528 _c
433 566 419 598 392 622 _c
365 646 330 659 286 659 _c
255 659 222 653 188 643 _c
154 632 117 616 78 594 _c
78 694 _l
118 710 155 722 189 730 _c
223 738 255 742 284 742 _c
}_e{359 742 419 723 464 685 _c
509 647 532 597 532 534 _c
532 504 526 475 515 449 _c
504 422 484 390 454 354 _c
446 344 420 317 376 272 _c
332 227 271 164 192 83 _c
_cl}_e}_d
/four{636 0 49 0 580 729 _sc
378 643 _m
129 254 _l
378 254 _l
378 643 _l
352 729 _m
476 729 _l
476 254 _l
580 254 _l
580 172 _l
476 172 _l
476 0 _l
378 0 _l
378 172 _l
49 172 _l
49 267 _l
352 729 _l
_cl}_d
/six{{636 0 70 -13 573 742 _sc
330 404 _m
286 404 251 388 225 358 _c
199 328 186 286 186 234 _c
186 181 199 139 225 109 _c
251 79 286 64 330 64 _c
374 64 409 79 435 109 _c
461 139 474 181 474 234 _c
474 286 461 328 435 358 _c
409 388 374 404 330 404 _c
526 713 _m
526 623 _l
501 635 476 644 451 650 _c
425 656 400 659 376 659 _c
310 659 260 637 226 593 _c
}_e{192 549 172 482 168 394 _c
187 422 211 444 240 459 _c
269 474 301 482 336 482 _c
409 482 467 459 509 415 _c
551 371 573 310 573 234 _c
573 159 550 99 506 54 _c
462 9 403 -13 330 -13 _c
246 -13 181 19 137 83 _c
92 147 70 241 70 364 _c
70 479 97 571 152 639 _c
206 707 280 742 372 742 _c
396 742 421 739 447 735 _c
472 730 498 723 526 713 _c
_cl}_e}_d
/eight{{636 0 68 -13 568 742 _sc
318 346 _m
271 346 234 333 207 308 _c
180 283 167 249 167 205 _c
167 161 180 126 207 101 _c
234 76 271 64 318 64 _c
364 64 401 76 428 102 _c
455 127 469 161 469 205 _c
469 249 455 283 429 308 _c
402 333 365 346 318 346 _c
219 388 _m
177 398 144 418 120 447 _c
96 476 85 511 85 553 _c
85 611 105 657 147 691 _c
188 725 245 742 318 742 _c
}_e{390 742 447 725 489 691 _c
530 657 551 611 551 553 _c
551 511 539 476 515 447 _c
491 418 459 398 417 388 _c
464 377 501 355 528 323 _c
554 291 568 251 568 205 _c
568 134 546 80 503 43 _c
459 5 398 -13 318 -13 _c
237 -13 175 5 132 43 _c
89 80 68 134 68 205 _c
68 251 81 291 108 323 _c
134 355 171 377 219 388 _c
183 544 _m
183 506 194 476 218 455 _c
}_e{242 434 275 424 318 424 _c
360 424 393 434 417 455 _c
441 476 453 506 453 544 _c
453 582 441 611 417 632 _c
393 653 360 664 318 664 _c
275 664 242 653 218 632 _c
194 611 183 582 183 544 _c
_cl}_e}_d
/C{{698 0 56 -13 644 742 _sc
644 673 _m
644 569 _l
610 599 575 622 537 638 _c
499 653 460 661 418 661 _c
334 661 270 635 226 584 _c
182 533 160 460 160 364 _c
160 268 182 194 226 143 _c
270 92 334 67 418 67 _c
460 67 499 74 537 90 _c
575 105 610 128 644 159 _c
644 56 _l
609 32 572 15 534 4 _c
496 -7 455 -13 412 -13 _c
302 -13 215 20 151 87 _c
}_e{87 154 56 246 56 364 _c
56 481 87 573 151 641 _c
215 708 302 742 412 742 _c
456 742 497 736 535 725 _c
573 713 610 696 644 673 _c
_cl}_e}_d
/I{295 0 98 0 197 729 _sc
98 729 _m
197 729 _l
197 0 _l
98 0 _l
98 729 _l
_cl}_d
/M{863 0 98 0 765 729 _sc
98 729 _m
245 729 _l
431 233 _l
618 729 _l
765 729 _l
765 0 _l
669 0 _l
669 640 _l
481 140 _l
382 140 _l
194 640 _l
194 0 _l
98 0 _l
98 729 _l
_cl}_d
/N{748 0 98 0 650 729 _sc
98 729 _m
231 729 _l
554 119 _l
554 729 _l
650 729 _l
650 0 _l
517 0 _l
194 610 _l
194 0 _l
98 0 _l
98 729 _l
_cl}_d
/a{{613 0 60 -13 522 560 _sc
343 275 _m
270 275 220 266 192 250 _c
164 233 150 205 150 165 _c
150 133 160 107 181 89 _c
202 70 231 61 267 61 _c
317 61 357 78 387 114 _c
417 149 432 196 432 255 _c
432 275 _l
343 275 _l
522 312 _m
522 0 _l
432 0 _l
432 83 _l
411 49 385 25 355 10 _c
325 -5 287 -13 243 -13 _c
187 -13 142 2 109 33 _c
76 64 60 106 60 159 _c
}_e{60 220 80 266 122 298 _c
163 329 224 345 306 345 _c
432 345 _l
432 354 _l
432 395 418 427 391 450 _c
364 472 326 484 277 484 _c
245 484 215 480 185 472 _c
155 464 127 453 100 439 _c
100 522 _l
132 534 164 544 195 550 _c
226 556 256 560 286 560 _c
365 560 424 539 463 498 _c
502 457 522 395 522 312 _c
_cl}_e}_d
/b{{635 0 91 -13 580 760 _sc
487 273 _m
487 339 473 390 446 428 _c
418 466 381 485 334 485 _c
286 485 249 466 222 428 _c
194 390 181 339 181 273 _c
181 207 194 155 222 117 _c
249 79 286 61 334 61 _c
381 61 418 79 446 117 _c
473 155 487 207 487 273 _c
181 464 _m
199 496 223 520 252 536 _c
281 552 316 560 356 560 _c
422 560 476 533 518 481 _c
559 428 580 359 580 273 _c
}_e{580 187 559 117 518 65 _c
476 13 422 -13 356 -13 _c
316 -13 281 -5 252 10 _c
223 25 199 49 181 82 _c
181 0 _l
91 0 _l
91 760 _l
181 760 _l
181 464 _l
_cl}_e}_d
/c{{550 0 55 -13 488 560 _sc
488 526 _m
488 442 _l
462 456 437 466 411 473 _c
385 480 360 484 334 484 _c
276 484 230 465 198 428 _c
166 391 150 339 150 273 _c
150 206 166 154 198 117 _c
230 80 276 62 334 62 _c
360 62 385 65 411 72 _c
437 79 462 90 488 104 _c
488 21 _l
462 9 436 0 410 -5 _c
383 -10 354 -13 324 -13 _c
242 -13 176 12 128 64 _c
}_e{79 115 55 185 55 273 _c
55 362 79 432 128 483 _c
177 534 244 560 330 560 _c
358 560 385 557 411 551 _c
437 545 463 537 488 526 _c
_cl}_e}_d
/d{{635 0 55 -13 544 760 _sc
454 464 _m
454 760 _l
544 760 _l
544 0 _l
454 0 _l
454 82 _l
435 49 411 25 382 10 _c
353 -5 319 -13 279 -13 _c
213 -13 159 13 117 65 _c
75 117 55 187 55 273 _c
55 359 75 428 117 481 _c
159 533 213 560 279 560 _c
319 560 353 552 382 536 _c
411 520 435 496 454 464 _c
148 273 _m
148 207 161 155 188 117 _c
215 79 253 61 301 61 _c
}_e{348 61 385 79 413 117 _c
440 155 454 207 454 273 _c
454 339 440 390 413 428 _c
385 466 348 485 301 485 _c
253 485 215 466 188 428 _c
161 390 148 339 148 273 _c
_cl}_e}_d
/e{{615 0 55 -13 562 560 _sc
562 296 _m
562 252 _l
149 252 _l
153 190 171 142 205 110 _c
238 78 284 62 344 62 _c
378 62 412 66 444 74 _c
476 82 509 95 541 113 _c
541 28 _l
509 14 476 3 442 -3 _c
408 -9 373 -13 339 -13 _c
251 -13 182 12 131 62 _c
80 112 55 181 55 268 _c
55 357 79 428 127 481 _c
175 533 241 560 323 560 _c
397 560 455 536 498 489 _c
}_e{540 441 562 377 562 296 _c
472 322 _m
471 371 457 410 431 440 _c
404 469 368 484 324 484 _c
274 484 234 469 204 441 _c
174 413 156 373 152 322 _c
472 322 _l
_cl}_e}_d
/f{352 0 23 0 371 760 _sc
371 760 _m
371 685 _l
285 685 _l
253 685 230 678 218 665 _c
205 652 199 629 199 595 _c
199 547 _l
347 547 _l
347 477 _l
199 477 _l
199 0 _l
109 0 _l
109 477 _l
23 477 _l
23 547 _l
109 547 _l
109 585 _l
109 645 123 690 151 718 _c
179 746 224 760 286 760 _c
371 760 _l
_cl}_d
/g{{635 0 55 -207 544 560 _sc
454 280 _m
454 344 440 395 414 431 _c
387 467 349 485 301 485 _c
253 485 215 467 188 431 _c
161 395 148 344 148 280 _c
148 215 161 165 188 129 _c
215 93 253 75 301 75 _c
349 75 387 93 414 129 _c
440 165 454 215 454 280 _c
544 68 _m
544 -24 523 -93 482 -139 _c
440 -184 377 -207 292 -207 _c
260 -207 231 -204 203 -200 _c
175 -195 147 -188 121 -178 _c
}_e{121 -91 _l
147 -105 173 -115 199 -122 _c
225 -129 251 -133 278 -133 _c
336 -133 380 -117 410 -87 _c
439 -56 454 -10 454 52 _c
454 96 _l
435 64 411 40 382 24 _c
353 8 319 0 279 0 _c
211 0 157 25 116 76 _c
75 127 55 195 55 280 _c
55 364 75 432 116 483 _c
157 534 211 560 279 560 _c
319 560 353 552 382 536 _c
411 520 435 496 454 464 _c
454 547 _l
544 547 _l
}_e{544 68 _l
_cl}_e}_d
/i{278 0 94 0 184 760 _sc
94 547 _m
184 547 _l
184 0 _l
94 0 _l
94 547 _l
94 760 _m
184 760 _l
184 646 _l
94 646 _l
94 760 _l
_cl}_d
/k{579 0 91 0 576 760 _sc
91 760 _m
181 760 _l
181 311 _l
449 547 _l
564 547 _l
274 291 _l
576 0 _l
459 0 _l
181 267 _l
181 0 _l
91 0 _l
91 760 _l
_cl}_d
/l{278 0 94 0 184 760 _sc
94 760 _m
184 760 _l
184 0 _l
94 0 _l
94 760 _l
_cl}_d
/m{{974 0 91 0 889 560 _sc
520 442 _m
542 482 569 511 600 531 _c
631 550 668 560 711 560 _c
767 560 811 540 842 500 _c
873 460 889 403 889 330 _c
889 0 _l
799 0 _l
799 327 _l
799 379 789 418 771 444 _c
752 469 724 482 686 482 _c
639 482 602 466 575 435 _c
548 404 535 362 535 309 _c
535 0 _l
445 0 _l
445 327 _l
445 379 435 418 417 444 _c
398 469 369 482 331 482 _c
}_e{285 482 248 466 221 435 _c
194 404 181 362 181 309 _c
181 0 _l
91 0 _l
91 547 _l
181 547 _l
181 462 _l
201 495 226 520 255 536 _c
283 552 317 560 357 560 _c
397 560 430 550 458 530 _c
486 510 506 480 520 442 _c
_cl}_e}_d
/n{634 0 91 0 549 560 _sc
549 330 _m
549 0 _l
459 0 _l
459 327 _l
459 379 448 417 428 443 _c
408 469 378 482 338 482 _c
289 482 251 466 223 435 _c
195 404 181 362 181 309 _c
181 0 _l
91 0 _l
91 547 _l
181 547 _l
181 462 _l
202 494 227 519 257 535 _c
286 551 320 560 358 560 _c
420 560 468 540 500 501 _c
532 462 549 405 549 330 _c
_cl}_d
/o{612 0 55 -13 557 560 _sc
306 484 _m
258 484 220 465 192 427 _c
164 389 150 338 150 273 _c
150 207 163 156 191 118 _c
219 80 257 62 306 62 _c
354 62 392 80 420 118 _c
448 156 462 207 462 273 _c
462 337 448 389 420 427 _c
392 465 354 484 306 484 _c
306 560 _m
384 560 445 534 490 484 _c
534 433 557 363 557 273 _c
557 183 534 113 490 63 _c
445 12 384 -13 306 -13 _c
227 -13 165 12 121 63 _c
77 113 55 183 55 273 _c
55 363 77 433 121 484 _c
165 534 227 560 306 560 _c
_cl}_d
/p{{635 0 91 -207 580 560 _sc
181 82 _m
181 -207 _l
91 -207 _l
91 547 _l
181 547 _l
181 464 _l
199 496 223 520 252 536 _c
281 552 316 560 356 560 _c
422 560 476 533 518 481 _c
559 428 580 359 580 273 _c
580 187 559 117 518 65 _c
476 13 422 -13 356 -13 _c
316 -13 281 -5 252 10 _c
223 25 199 49 181 82 _c
487 273 _m
487 339 473 390 446 428 _c
418 466 381 485 334 485 _c
}_e{286 485 249 466 222 428 _c
194 390 181 339 181 273 _c
181 207 194 155 222 117 _c
249 79 286 61 334 61 _c
381 61 418 79 446 117 _c
473 155 487 207 487 273 _c
_cl}_e}_d
/r{411 0 91 0 411 560 _sc
411 463 _m
401 469 390 473 378 476 _c
366 478 353 480 339 480 _c
288 480 249 463 222 430 _c
194 397 181 350 181 288 _c
181 0 _l
91 0 _l
91 547 _l
181 547 _l
181 462 _l
199 495 224 520 254 536 _c
284 552 321 560 365 560 _c
371 560 378 559 386 559 _c
393 558 401 557 411 555 _c
411 463 _l
_cl}_d
/s{{521 0 54 -13 472 560 _sc
443 531 _m
443 446 _l
417 458 391 468 364 475 _c
336 481 308 485 279 485 _c
234 485 200 478 178 464 _c
156 450 145 430 145 403 _c
145 382 153 366 169 354 _c
185 342 217 330 265 320 _c
296 313 _l
360 299 405 279 432 255 _c
458 230 472 195 472 151 _c
472 100 452 60 412 31 _c
372 1 316 -13 246 -13 _c
216 -13 186 -10 154 -5 _c
}_e{122 0 89 8 54 20 _c
54 113 _l
87 95 120 82 152 74 _c
184 65 216 61 248 61 _c
290 61 323 68 346 82 _c
368 96 380 117 380 144 _c
380 168 371 187 355 200 _c
339 213 303 226 247 238 _c
216 245 _l
160 257 119 275 95 299 _c
70 323 58 356 58 399 _c
58 450 76 490 112 518 _c
148 546 200 560 268 560 _c
301 560 332 557 362 552 _c
391 547 418 540 443 531 _c
}_e{_cl}_e}_d
/t{392 0 27 0 368 702 _sc
183 702 _m
183 547 _l
368 547 _l
368 477 _l
183 477 _l
183 180 _l
183 135 189 106 201 94 _c
213 81 238 75 276 75 _c
368 75 _l
368 0 _l
276 0 _l
206 0 158 13 132 39 _c
106 65 93 112 93 180 _c
93 477 _l
27 477 _l
27 547 _l
93 547 _l
93 702 _l
183 702 _l
_cl}_d
/u{634 0 85 -13 543 547 _sc
85 216 _m
85 547 _l
175 547 _l
175 219 _l
175 167 185 129 205 103 _c
225 77 255 64 296 64 _c
344 64 383 79 411 110 _c
439 141 453 183 453 237 _c
453 547 _l
543 547 _l
543 0 _l
453 0 _l
453 84 _l
431 50 405 26 377 10 _c
348 -5 315 -13 277 -13 _c
214 -13 166 6 134 45 _c
101 83 85 140 85 216 _c
_cl}_d
/v{592 0 30 0 562 547 _sc
30 547 _m
125 547 _l
296 88 _l
467 547 _l
562 547 _l
357 0 _l
235 0 _l
30 547 _l
_cl}_d
/w{818 0 42 0 776 547 _sc
42 547 _m
132 547 _l
244 120 _l
356 547 _l
462 547 _l
574 120 _l
686 547 _l
776 547 _l
633 0 _l
527 0 _l
409 448 _l
291 0 _l
185 0 _l
42 547 _l
_cl}_d
/x{592 0 29 0 559 547 _sc
549 547 _m
351 281 _l
559 0 _l
453 0 _l
294 215 _l
135 0 _l
29 0 _l
241 286 _l
47 547 _l
153 547 _l
298 352 _l
443 547 _l
549 547 _l
_cl}_d
/y{592 0 30 -207 562 547 _sc
322 -50 _m
296 -114 271 -157 247 -177 _c
223 -197 191 -207 151 -207 _c
79 -207 _l
79 -132 _l
132 -132 _l
156 -132 175 -126 189 -114 _c
203 -102 218 -75 235 -31 _c
251 9 _l
30 547 _l
125 547 _l
296 119 _l
467 547 _l
562 547 _l
322 -50 _l
_cl}_d
/z{525 0 43 0 482 547 _sc
55 547 _m
482 547 _l
482 465 _l
144 72 _l
482 72 _l
482 0 _l
43 0 _l
43 82 _l
381 475 _l
55 475 _l
55 547 _l
_cl}_d
end readonly def

/BuildGlyph
 {exch begin
 CharStrings exch
 2 copy known not{pop /.notdef}if
 true 3 1 roll get exec
 end}_d

/BuildChar {
 1 index /Encoding get exch get
 1 index /BuildGlyph get exec
}_d

FontName currentdict end definefont pop
end
%%EndProlog
mpldict begin
18 180.9 translate
576 430.2 0 0 clipbox
gsave
0 0 m
576 0 l
576 430.2 l
0 430.2 l
cl
1.000 setgray
fill
grestore
gsave
72 43.02 m
518.4 43.02 l
518.4 387.18 l
72 387.18 l
cl
1.000 setgray
fill
grestore
1.000 setlinewidth
1 setlinejoin
2 setlinecap
[] 0 setdash
1.000 0.000 0.000 setrgbcolor
gsave
446.4 344.2 72 43.02 clipbox
96.8 43.02 m
109.2 43.02 l
121.6 43.02 l
134 48.8606 l
146.4 56.819 l
158.8 64.2164 l
171.2 72.5827 l
183.6 87.2472 l
196 98.8993 l
208.4 108.311 l
220.8 142.808 l
233.2 148.419 l
245.6 159.835 l
258 180.706 l
270.4 186.1 l
282.8 196.796 l
295.2 209.38 l
307.6 247.419 l
320 259.941 l
332.4 268.393 l
344.8 266.597 l
357.2 279.501 l
369.6 272.445 l
382 285.195 l
394.4 301.763 l
406.8 292.79 l
419.2 315.437 l
431.6 329.653 l
444 339.543 l
456.4 326.772 l
468.8 334.977 l
481.2 338.144 l
493.6 349.514 l
506 350.695 l
stroke
grestore
1.000 1.000 0.000 setrgbcolor
gsave
446.4 344.2 72 43.02 clipbox
96.8 43.02 m
109.2 73.6599 l
121.6 97.7701 l
134 127.987 l
146.4 147.838 l
158.8 162.927 l
171.2 175.604 l
183.6 207.058 l
196 209.824 l
208.4 221.765 l
220.8 229.644 l
233.2 244.513 l
245.6 279.247 l
258 288.206 l
270.4 284.733 l
282.8 305.306 l
295.2 321.114 l
307.6 316.152 l
320 325.636 l
332.4 339.621 l
344.8 330.555 l
357.2 342.796 l
369.6 341.71 l
382 343.268 l
394.4 352.4 l
406.8 356.743 l
419.2 369.855 l
431.6 365.48 l
444 364.165 l
456.4 364.134 l
468.8 378.079 l
481.2 374.558 l
493.6 367.105 l
506 372.037 l
stroke
grestore
0.000 1.000 0.000 setrgbcolor
gsave
446.4 344.2 72 43.02 clipbox
96.8 43.02 m
109.2 43.02 l
121.6 46.0778 l
134 49.1263 l
146.4 60.046 l
158.8 78.8998 l
171.2 69.5371 l
183.6 97.0139 l
196 108.317 l
208.4 123.041 l
220.8 136.101 l
233.2 194.571 l
245.6 171.31 l
258 190.608 l
270.4 220.745 l
282.8 233.589 l
295.2 247.376 l
307.6 236.442 l
320 253.393 l
332.4 262.322 l
344.8 268.107 l
357.2 262.86 l
369.6 295.168 l
382 293.275 l
394.4 287.615 l
406.8 319.555 l
419.2 319.062 l
431.6 329.578 l
444 309.765 l
456.4 296.285 l
468.8 271.982 l
481.2 314.005 l
493.6 287.814 l
506 279.333 l
stroke
grestore
0.000 1.000 1.000 setrgbcolor
gsave
446.4 344.2 72 43.02 clipbox
96.8 43.02 m
109.2 43.02 l
121.6 43.02 l
134 48.8606 l
146.4 56.819 l
158.8 64.2164 l
171.2 72.5827 l
183.6 87.2472 l
196 99.4983 l
208.4 108.311 l
220.8 141.832 l
233.2 149.059 l
245.6 157.339 l
258 195.06 l
270.4 186.181 l
282.8 196.796 l
295.2 213.538 l
307.6 244.995 l
320 259.205 l
332.4 270.294 l
344.8 270.837 l
357.2 279.662 l
369.6 270.408 l
382 269.376 l
394.4 302.456 l
406.8 293.309 l
419.2 327.352 l
431.6 354.381 l
444 337.493 l
456.4 316.467 l
468.8 353.275 l
481.2 346.214 l
493.6 344.627 l
506 366.834 l
stroke
grestore
0.000 0.000 1.000 setrgbcolor
gsave
446.4 344.2 72 43.02 clipbox
96.8 43.02 m
109.2 53.7474 l
121.6 52.5839 l
134 63.7677 l
146.4 74.9451 l
158.8 77.9728 l
171.2 109.137 l
183.6 112.894 l
196 128.612 l
208.4 136.448 l
220.8 147.628 l
233.2 177.695 l
245.6 223.556 l
258 216.921 l
270.4 239.826 l
282.8 235.675 l
295.2 256.599 l
307.6 255.57 l
320 285.312 l
332.4 279.799 l
344.8 341.764 l
357.2 283.037 l
369.6 282.143 l
382 308.065 l
394.4 323.472 l
406.8 324.673 l
419.2 369.772 l
431.6 335.882 l
444 348.358 l
456.4 334.716 l
468.8 352.103 l
481.2 360.82 l
493.6 349.547 l
506 352.621 l
stroke
grestore
1.000 0.000 1.000 setrgbcolor
gsave
446.4 344.2 72 43.02 clipbox
96.8 45.8309 m
109.2 119.534 l
121.6 114.116 l
134 136.952 l
146.4 154.292 l
158.8 198.015 l
171.2 164.144 l
183.6 206.465 l
196 211.336 l
208.4 210.083 l
220.8 216.637 l
233.2 243.64 l
245.6 258.212 l
258 266.166 l
270.4 277.874 l
282.8 305.289 l
295.2 316.22 l
307.6 313.601 l
320 317.8 l
332.4 300.75 l
344.8 309.262 l
357.2 301.595 l
369.6 334.103 l
382 319.857 l
394.4 339.477 l
406.8 352.175 l
419.2 344.485 l
431.6 339.348 l
444 346.745 l
456.4 353.401 l
468.8 354.913 l
481.2 358.428 l
493.6 361.82 l
506 359.901 l
stroke
grestore
0 setlinejoin
0.000 setgray
gsave
72 387.18 m
518.4 387.18 l
stroke
grestore
gsave
518.4 43.02 m
518.4 387.18 l
stroke
grestore
gsave
72 43.02 m
518.4 43.02 l
stroke
grestore
gsave
72 43.02 m
72 387.18 l
stroke
grestore
0.500 setlinewidth
1 setlinejoin
0 setlinecap
[1 3] 0 setdash
gsave
446.4 344.2 72 43.02 clipbox
72 43.02 m
72 387.18 l
stroke
grestore
[] 0 setdash
gsave
/o {
gsave
newpath
translate
0.5 setlinewidth
1 setlinejoin
0 setlinecap
0 0 m
0 4 l
gsave
0.000 setgray
fill
grestore
stroke
grestore
} bind def
72 43.02 o
grestore
gsave
/o {
gsave
newpath
translate
0.5 setlinewidth
1 setlinejoin
0 setlinecap
0 0 m
0 -4 l
gsave
0.000 setgray
fill
grestore
stroke
grestore
} bind def
72 387.18 o
grestore
/BitstreamVeraSans-Roman findfont
12.000 scalefont
setfont
gsave
59.429688 29.895000 translate
0.000000 rotate
0.000000 0.000000 m /zero glyphshow
7.634766 0.000000 m /period glyphshow
11.449219 0.000000 m /zero glyphshow
19.083984 0.000000 m /zero glyphshow
grestore
[1 3] 0 setdash
gsave
446.4 344.2 72 43.02 clipbox
121.6 43.02 m
121.6 387.18 l
stroke
grestore
[] 0 setdash
gsave
/o {
gsave
newpath
translate
0.5 setlinewidth
1 setlinejoin
0 setlinecap
0 0 m
0 4 l
gsave
0.000 setgray
fill
grestore
stroke
grestore
} bind def
121.6 43.02 o
grestore
gsave
/o {
gsave
newpath
translate
0.5 setlinewidth
1 setlinejoin
0 setlinecap
0 0 m
0 -4 l
gsave
0.000 setgray
fill
grestore
stroke
grestore
} bind def
121.6 387.18 o
grestore
gsave
109.232812 29.895000 translate
0.000000 rotate
0.000000 0.000000 m /zero glyphshow
7.634766 0.000000 m /period glyphshow
11.449219 0.000000 m /zero glyphshow
19.083984 0.000000 m /two glyphshow
grestore
[1 3] 0 setdash
gsave
446.4 344.2 72 43.02 clipbox
171.2 43.02 m
171.2 387.18 l
stroke
grestore
[] 0 setdash
gsave
/o {
gsave
newpath
translate
0.5 setlinewidth
1 setlinejoin
0 setlinecap
0 0 m
0 4 l
gsave
0.000 setgray
fill
grestore
stroke
grestore
} bind def
171.2 43.02 o
grestore
gsave
/o {
gsave
newpath
translate
0.5 setlinewidth
1 setlinejoin
0 setlinecap
0 0 m
0 -4 l
gsave
0.000 setgray
fill
grestore
stroke
grestore
} bind def
171.2 387.18 o
grestore
gsave
158.567187 29.895000 translate
0.000000 rotate
0.000000 0.000000 m /zero glyphshow
7.634766 0.000000 m /period glyphshow
11.449219 0.000000 m /zero glyphshow
19.083984 0.000000 m /four glyphshow
grestore
[1 3] 0 setdash
gsave
446.4 344.2 72 43.02 clipbox
220.8 43.02 m
220.8 387.18 l
stroke
grestore
[] 0 setdash
gsave
/o {
gsave
newpath
translate
0.5 setlinewidth
1 setlinejoin
0 setlinecap
0 0 m
0 4 l
gsave
0.000 setgray
fill
grestore
stroke
grestore
} bind def
220.8 43.02 o
grestore
gsave
/o {
gsave
newpath
translate
0.5 setlinewidth
1 setlinejoin
0 setlinecap
0 0 m
0 -4 l
gsave
0.000 setgray
fill
grestore
stroke
grestore
} bind def
220.8 387.18 o
grestore
gsave
208.214062 29.895000 translate
0.000000 rotate
0.000000 0.000000 m /zero glyphshow
7.634766 0.000000 m /period glyphshow
11.449219 0.000000 m /zero glyphshow
19.083984 0.000000 m /six glyphshow
grestore
[1 3] 0 setdash
gsave
446.4 344.2 72 43.02 clipbox
270.4 43.02 m
270.4 387.18 l
stroke
grestore
[] 0 setdash
gsave
/o {
gsave
newpath
translate
0.5 setlinewidth
1 setlinejoin
0 setlinecap
0 0 m
0 4 l
gsave
0.000 setgray
fill
grestore
stroke
grestore
} bind def
270.4 43.02 o
grestore
gsave
/o {
gsave
newpath
translate
0.5 setlinewidth
1 setlinejoin
0 setlinecap
0 0 m
0 -4 l
gsave
0.000 setgray
fill
grestore
stroke
grestore
} bind def
270.4 387.18 o
grestore
gsave
257.845312 29.895000 translate
0.000000 rotate
0.000000 0.000000 m /zero glyphshow
7.634766 0.000000 m /period glyphshow
11.449219 0.000000 m /zero glyphshow
19.083984 0.000000 m /eight glyphshow
grestore
[1 3] 0 setdash
gsave
446.4 344.2 72 43.02 clipbox
320 43.02 m
320 387.18 l
stroke
grestore
[] 0 setdash
gsave
/o {
gsave
newpath
translate
0.5 setlinewidth
1 setlinejoin
0 setlinecap
0 0 m
0 4 l
gsave
0.000 setgray
fill
grestore
stroke
grestore
} bind def
320 43.02 o
grestore
gsave
/o {
gsave
newpath
translate
0.5 setlinewidth
1 setlinejoin
0 setlinecap
0 0 m
0 -4 l
gsave
0.000 setgray
fill
grestore
stroke
grestore
} bind def
320 387.18 o
grestore
gsave
307.429688 29.895000 translate
0.000000 rotate
0.000000 0.000000 m /zero glyphshow
7.634766 0.000000 m /period glyphshow
11.449219 0.000000 m /one glyphshow
19.083984 0.000000 m /zero glyphshow
grestore
[1 3] 0 setdash
gsave
446.4 344.2 72 43.02 clipbox
369.6 43.02 m
369.6 387.18 l
stroke
grestore
[] 0 setdash
gsave
/o {
gsave
newpath
translate
0.5 setlinewidth
1 setlinejoin
0 setlinecap
0 0 m
0 4 l
gsave
0.000 setgray
fill
grestore
stroke
grestore
} bind def
369.6 43.02 o
grestore
gsave
/o {
gsave
newpath
translate
0.5 setlinewidth
1 setlinejoin
0 setlinecap
0 0 m
0 -4 l
gsave
0.000 setgray
fill
grestore
stroke
grestore
} bind def
369.6 387.18 o
grestore
gsave
357.232812 29.895000 translate
0.000000 rotate
0.000000 0.000000 m /zero glyphshow
7.634766 0.000000 m /period glyphshow
11.449219 0.000000 m /one glyphshow
19.083984 0.000000 m /two glyphshow
grestore
[1 3] 0 setdash
gsave
446.4 344.2 72 43.02 clipbox
419.2 43.02 m
419.2 387.18 l
stroke
grestore
[] 0 setdash
gsave
/o {
gsave
newpath
translate
0.5 setlinewidth
1 setlinejoin
0 setlinecap
0 0 m
0 4 l
gsave
0.000 setgray
fill
grestore
stroke
grestore
} bind def
419.2 43.02 o
grestore
gsave
/o {
gsave
newpath
translate
0.5 setlinewidth
1 setlinejoin
0 setlinecap
0 0 m
0 -4 l
gsave
0.000 setgray
fill
grestore
stroke
grestore
} bind def
419.2 387.18 o
grestore
gsave
406.567188 29.895000 translate
0.000000 rotate
0.000000 0.000000 m /zero glyphshow
7.634766 0.000000 m /period glyphshow
11.449219 0.000000 m /one glyphshow
19.083984 0.000000 m /four glyphshow
grestore
[1 3] 0 setdash
gsave
446.4 344.2 72 43.02 clipbox
468.8 43.02 m
468.8 387.18 l
stroke
grestore
[] 0 setdash
gsave
/o {
gsave
newpath
translate
0.5 setlinewidth
1 setlinejoin
0 setlinecap
0 0 m
0 4 l
gsave
0.000 setgray
fill
grestore
stroke
grestore
} bind def
468.8 43.02 o
grestore
gsave
/o {
gsave
newpath
translate
0.5 setlinewidth
1 setlinejoin
0 setlinecap
0 0 m
0 -4 l
gsave
0.000 setgray
fill
grestore
stroke
grestore
} bind def
468.8 387.18 o
grestore
gsave
456.214063 29.895000 translate
0.000000 rotate
0.000000 0.000000 m /zero glyphshow
7.634766 0.000000 m /period glyphshow
11.449219 0.000000 m /one glyphshow
19.083984 0.000000 m /six glyphshow
grestore
[1 3] 0 setdash
gsave
446.4 344.2 72 43.02 clipbox
518.4 43.02 m
518.4 387.18 l
stroke
grestore
[] 0 setdash
gsave
/o {
gsave
newpath
translate
0.5 setlinewidth
1 setlinejoin
0 setlinecap
0 0 m
0 4 l
gsave
0.000 setgray
fill
grestore
stroke
grestore
} bind def
518.4 43.02 o
grestore
gsave
/o {
gsave
newpath
translate
0.5 setlinewidth
1 setlinejoin
0 setlinecap
0 0 m
0 -4 l
gsave
0.000 setgray
fill
grestore
stroke
grestore
} bind def
518.4 387.18 o
grestore
gsave
505.845312 29.895000 translate
0.000000 rotate
0.000000 0.000000 m /zero glyphshow
7.634766 0.000000 m /period glyphshow
11.449219 0.000000 m /one glyphshow
19.083984 0.000000 m /eight glyphshow
grestore
gsave
224.262500 13.270000 translate
0.000000 rotate
0.000000 0.000000 m /e glyphshow
7.132812 0.000000 m /x glyphshow
14.234375 0.000000 m /t glyphshow
18.939453 0.000000 m /e glyphshow
26.322266 0.000000 m /r glyphshow
31.005859 0.000000 m /n glyphshow
38.611328 0.000000 m /a glyphshow
45.964844 0.000000 m /l glyphshow
49.298828 0.000000 m /space glyphshow
53.113281 0.000000 m /l glyphshow
56.447266 0.000000 m /i glyphshow
59.781250 0.000000 m /n glyphshow
67.386719 0.000000 m /k glyphshow
74.335938 0.000000 m /space glyphshow
78.150391 0.000000 m /p glyphshow
85.767578 0.000000 m /r glyphshow
90.451172 0.000000 m /o glyphshow
97.792969 0.000000 m /b glyphshow
105.410156 0.000000 m /a glyphshow
112.763672 0.000000 m /b glyphshow
120.380859 0.000000 m /i glyphshow
123.714844 0.000000 m /l glyphshow
127.048828 0.000000 m /i glyphshow
130.382812 0.000000 m /t glyphshow
135.087891 0.000000 m /y glyphshow
grestore
[1 3] 0 setdash
gsave
446.4 344.2 72 43.02 clipbox
72 43.02 m
518.4 43.02 l
stroke
grestore
[] 0 setdash
gsave
/o {
gsave
newpath
translate
0.5 setlinewidth
1 setlinejoin
0 setlinecap
0 0 m
4 0 l
gsave
0.000 setgray
fill
grestore
stroke
grestore
} bind def
72 43.02 o
grestore
gsave
/o {
gsave
newpath
translate
0.5 setlinewidth
1 setlinejoin
0 setlinecap
0 0 m
-4 0 l
gsave
0.000 setgray
fill
grestore
stroke
grestore
} bind def
518.4 43.02 o
grestore
gsave
50.500000 39.707500 translate
0.000000 rotate
0.000000 0.000000 m /zero glyphshow
7.634766 0.000000 m /period glyphshow
11.449219 0.000000 m /zero glyphshow
grestore
[1 3] 0 setdash
gsave
446.4 344.2 72 43.02 clipbox
72 111.852 m
518.4 111.852 l
stroke
grestore
[] 0 setdash
gsave
/o {
gsave
newpath
translate
0.5 setlinewidth
1 setlinejoin
0 setlinecap
0 0 m
4 0 l
gsave
0.000 setgray
fill
grestore
stroke
grestore
} bind def
72 111.852 o
grestore
gsave
/o {
gsave
newpath
translate
0.5 setlinewidth
1 setlinejoin
0 setlinecap
0 0 m
-4 0 l
gsave
0.000 setgray
fill
grestore
stroke
grestore
} bind def
518.4 111.852 o
grestore
gsave
50.906250 108.539500 translate
0.000000 rotate
0.000000 0.000000 m /zero glyphshow
7.634766 0.000000 m /period glyphshow
11.449219 0.000000 m /two glyphshow
grestore
[1 3] 0 setdash
gsave
446.4 344.2 72 43.02 clipbox
72 180.684 m
518.4 180.684 l
stroke
grestore
[] 0 setdash
gsave
/o {
gsave
newpath
translate
0.5 setlinewidth
1 setlinejoin
0 setlinecap
0 0 m
4 0 l
gsave
0.000 setgray
fill
grestore
stroke
grestore
} bind def
72 180.684 o
grestore
gsave
/o {
gsave
newpath
translate
0.5 setlinewidth
1 setlinejoin
0 setlinecap
0 0 m
-4 0 l
gsave
0.000 setgray
fill
grestore
stroke
grestore
} bind def
518.4 180.684 o
grestore
gsave
50.375000 177.371500 translate
0.000000 rotate
0.000000 0.000000 m /zero glyphshow
7.634766 0.000000 m /period glyphshow
11.449219 0.000000 m /four glyphshow
grestore
[1 3] 0 setdash
gsave
446.4 344.2 72 43.02 clipbox
72 249.516 m
518.4 249.516 l
stroke
grestore
[] 0 setdash
gsave
/o {
gsave
newpath
translate
0.5 setlinewidth
1 setlinejoin
0 setlinecap
0 0 m
4 0 l
gsave
0.000 setgray
fill
grestore
stroke
grestore
} bind def
72 249.516 o
grestore
gsave
/o {
gsave
newpath
translate
0.5 setlinewidth
1 setlinejoin
0 setlinecap
0 0 m
-4 0 l
gsave
0.000 setgray
fill
grestore
stroke
grestore
} bind def
518.4 249.516 o
grestore
gsave
50.468750 246.203500 translate
0.000000 rotate
0.000000 0.000000 m /zero glyphshow
7.634766 0.000000 m /period glyphshow
11.449219 0.000000 m /six glyphshow
grestore
[1 3] 0 setdash
gsave
446.4 344.2 72 43.02 clipbox
72 318.348 m
518.4 318.348 l
stroke
grestore
[] 0 setdash
gsave
/o {
gsave
newpath
translate
0.5 setlinewidth
1 setlinejoin
0 setlinecap
0 0 m
4 0 l
gsave
0.000 setgray
fill
grestore
stroke
grestore
} bind def
72 318.348 o
grestore
gsave
/o {
gsave
newpath
translate
0.5 setlinewidth
1 setlinejoin
0 setlinecap
0 0 m
-4 0 l
gsave
0.000 setgray
fill
grestore
stroke
grestore
} bind def
518.4 318.348 o
grestore
gsave
50.531250 315.035500 translate
0.000000 rotate
0.000000 0.000000 m /zero glyphshow
7.634766 0.000000 m /period glyphshow
11.449219 0.000000 m /eight glyphshow
grestore
[1 3] 0 setdash
gsave
446.4 344.2 72 43.02 clipbox
72 387.18 m
518.4 387.18 l
stroke
grestore
[] 0 setdash
gsave
/o {
gsave
newpath
translate
0.5 setlinewidth
1 setlinejoin
0 setlinecap
0 0 m
4 0 l
gsave
0.000 setgray
fill
grestore
stroke
grestore
} bind def
72 387.18 o
grestore
gsave
/o {
gsave
newpath
translate
0.5 setlinewidth
1 setlinejoin
0 setlinecap
0 0 m
-4 0 l
gsave
0.000 setgray
fill
grestore
stroke
grestore
} bind def
518.4 387.18 o
grestore
gsave
51.015625 383.867500 translate
0.000000 rotate
0.000000 0.000000 m /one glyphshow
7.634766 0.000000 m /period glyphshow
11.449219 0.000000 m /zero glyphshow
grestore
gsave
42.875000 122.576562 translate
90.000000 rotate
0.000000 0.000000 m /N glyphshow
8.976562 0.000000 m /o glyphshow
16.318359 0.000000 m /r glyphshow
21.001953 0.000000 m /m glyphshow
32.691406 0.000000 m /a glyphshow
40.044922 0.000000 m /l glyphshow
43.378906 0.000000 m /i glyphshow
46.712891 0.000000 m /z glyphshow
53.011719 0.000000 m /e glyphshow
60.394531 0.000000 m /d glyphshow
68.011719 0.000000 m /space glyphshow
71.826172 0.000000 m /M glyphshow
82.179688 0.000000 m /u glyphshow
89.785156 0.000000 m /t glyphshow
94.490234 0.000000 m /u glyphshow
102.095703 0.000000 m /a glyphshow
109.449219 0.000000 m /l glyphshow
112.783203 0.000000 m /space glyphshow
116.597656 0.000000 m /I glyphshow
120.136719 0.000000 m /n glyphshow
127.742188 0.000000 m /f glyphshow
131.966797 0.000000 m /o glyphshow
139.308594 0.000000 m /r glyphshow
143.992188 0.000000 m /m glyphshow
155.681641 0.000000 m /a glyphshow
163.035156 0.000000 m /t glyphshow
167.740234 0.000000 m /i glyphshow
171.074219 0.000000 m /o glyphshow
178.416016 0.000000 m /n glyphshow
grestore
1.000 setlinewidth
0 setlinejoin
gsave
422.547 47.52 m
513.9 47.52 l
513.9 129.532 l
422.547 129.532 l
cl
gsave
1.000 setgray
fill
grestore
stroke
grestore
1 setlinejoin
2 setlinecap
1.000 0.000 0.000 setrgbcolor
gsave
428.847 122.239 m
441.447 122.239 l
stroke
grestore
0.000 setgray
/BitstreamVeraSans-Roman findfont
9.000 scalefont
setfont
gsave
451.346875 119.088750 translate
0.000000 rotate
0.000000 0.000000 m /a glyphshow
5.515137 0.000000 m /g glyphshow
11.228027 0.000000 m /g glyphshow
16.940918 0.000000 m /M glyphshow
24.706055 0.000000 m /u glyphshow
30.410156 0.000000 m /l glyphshow
32.910645 0.000000 m /t glyphshow
36.439453 0.000000 m /i glyphshow
38.939941 0.000000 m /l glyphshow
41.440430 0.000000 m /e glyphshow
46.977539 0.000000 m /v glyphshow
52.303711 0.000000 m /e glyphshow
57.840820 0.000000 m /l glyphshow
grestore
1.000 1.000 0.000 setrgbcolor
gsave
428.847 109.02 m
441.447 109.02 l
stroke
grestore
0.000 setgray
gsave
451.346875 105.870000 translate
0.000000 rotate
0.000000 0.000000 m /f glyphshow
3.168457 0.000000 m /a glyphshow
8.683594 0.000000 m /s glyphshow
13.372559 0.000000 m /t glyphshow
16.901367 0.000000 m /g glyphshow
22.614258 0.000000 m /r glyphshow
26.064453 0.000000 m /e glyphshow
31.601562 0.000000 m /e glyphshow
37.138672 0.000000 m /d glyphshow
42.851562 0.000000 m /y glyphshow
grestore
0.000 1.000 0.000 setrgbcolor
gsave
428.847 95.8012 m
441.447 95.8012 l
stroke
grestore
0.000 setgray
gsave
451.346875 92.651250 translate
0.000000 rotate
0.000000 0.000000 m /w glyphshow
7.360840 0.000000 m /a glyphshow
12.875977 0.000000 m /l glyphshow
15.376465 0.000000 m /k glyphshow
20.588379 0.000000 m /t glyphshow
24.117188 0.000000 m /r glyphshow
27.817383 0.000000 m /a glyphshow
33.332520 0.000000 m /p glyphshow
grestore
0.000 1.000 1.000 setrgbcolor
gsave
428.847 82.5825 m
441.447 82.5825 l
stroke
grestore
0.000 setgray
gsave
451.346875 79.432500 translate
0.000000 rotate
0.000000 0.000000 m /m glyphshow
8.767090 0.000000 m /u glyphshow
14.471191 0.000000 m /l glyphshow
16.971680 0.000000 m /t glyphshow
20.500488 0.000000 m /i glyphshow
23.000977 0.000000 m /l glyphshow
25.501465 0.000000 m /e glyphshow
31.038574 0.000000 m /v glyphshow
36.364746 0.000000 m /e glyphshow
41.901855 0.000000 m /l glyphshow
grestore
0.000 0.000 1.000 setrgbcolor
gsave
428.847 69.3637 m
441.447 69.3637 l
stroke
grestore
0.000 setgray
gsave
451.346875 66.213750 translate
0.000000 rotate
0.000000 0.000000 m /a glyphshow
5.515137 0.000000 m /g glyphshow
11.228027 0.000000 m /g glyphshow
16.940918 0.000000 m /C glyphshow
23.225098 0.000000 m /l glyphshow
25.725586 0.000000 m /u glyphshow
31.429688 0.000000 m /s glyphshow
36.118652 0.000000 m /t glyphshow
grestore
1.000 0.000 1.000 setrgbcolor
gsave
428.847 56.145 m
441.447 56.145 l
stroke
grestore
0.000 setgray
gsave
451.346875 52.995000 translate
0.000000 rotate
0.000000 0.000000 m /e glyphshow
5.537109 0.000000 m /i glyphshow
8.037598 0.000000 m /g glyphshow
13.750488 0.000000 m /e glyphshow
19.287598 0.000000 m /n glyphshow
24.991699 0.000000 m /v glyphshow
30.317871 0.000000 m /e glyphshow
35.854980 0.000000 m /c glyphshow
40.803223 0.000000 m /t glyphshow
44.332031 0.000000 m /o glyphshow
49.838379 0.000000 m /r glyphshow
grestore

end
showpage
