%!PS-Adobe-3.0 EPSF-3.0
%%Title: D:/Zurk/YaDisk/data Mining problems/comunity-detection-diploma/plots/figure_2.eps
%%Creator: matplotlib version 1.4.0, http://matplotlib.org/
%%CreationDate: Wed Mar 04 21:06:23 2015
%%Orientation: portrait
%%BoundingBox: 18 180 594 611
%%EndComments
%%BeginProlog
/mpldict 8 dict def
mpldict begin
/m { moveto } bind def
/l { lineto } bind def
/r { rlineto } bind def
/c { curveto } bind def
/cl { closepath } bind def
/box {
m
1 index 0 r
0 exch r
neg 0 r
cl
} bind def
/clipbox {
box
clip
newpath
} bind def
%!PS-Adobe-3.0 Resource-Font
%%Title: Bitstream Vera Sans
%%Copyright: Copyright (c) 2003 by Bitstream, Inc. All Rights Reserved.
%%Creator: Converted from TrueType to type 3 by PPR
25 dict begin
/_d{bind def}bind def
/_m{moveto}_d
/_l{lineto}_d
/_cl{closepath eofill}_d
/_c{curveto}_d
/_sc{7 -1 roll{setcachedevice}{pop pop pop pop pop pop}ifelse}_d
/_e{exec}_d
/FontName /BitstreamVeraSans-Roman def
/PaintType 0 def
/FontMatrix[.001 0 0 .001 0 0]def
/FontBBox[-183 -236 1287 928]def
/FontType 3 def
/Encoding [ /space /hyphen /period /zero /one /two /three /four /five /six /seven /eight /C /P /a /b /c /d /e /f /g /i /j /k /l /m /n /o /p /r /s /t /u /v /w /x /y ] def
/FontInfo 10 dict dup begin
/FamilyName (Bitstream Vera Sans) def
/FullName (Bitstream Vera Sans) def
/Notice (Copyright (c) 2003 by Bitstream, Inc. All Rights Reserved. Bitstream Vera is a trademark of Bitstream, Inc.) def
/Weight (Roman) def
/Version (Release 1.10) def
/ItalicAngle 0.0 def
/isFixedPitch false def
/UnderlinePosition -213 def
/UnderlineThickness 143 def
end readonly def
/CharStrings 37 dict dup begin
/space{318 0 0 0 0 0 _sc
}_d
/hyphen{361 0 49 234 312 314 _sc
49 314 _m
312 314 _l
312 234 _l
49 234 _l
49 314 _l
_cl}_d
/period{318 0 107 0 210 124 _sc
107 124 _m
210 124 _l
210 0 _l
107 0 _l
107 124 _l
_cl}_d
/zero{636 0 66 -13 570 742 _sc
318 664 _m
267 664 229 639 203 589 _c
177 539 165 464 165 364 _c
165 264 177 189 203 139 _c
229 89 267 64 318 64 _c
369 64 407 89 433 139 _c
458 189 471 264 471 364 _c
471 464 458 539 433 589 _c
407 639 369 664 318 664 _c
318 742 _m
399 742 461 709 505 645 _c
548 580 570 486 570 364 _c
570 241 548 147 505 83 _c
461 19 399 -13 318 -13 _c
236 -13 173 19 130 83 _c
87 147 66 241 66 364 _c
66 486 87 580 130 645 _c
173 709 236 742 318 742 _c
_cl}_d
/one{636 0 110 0 544 729 _sc
124 83 _m
285 83 _l
285 639 _l
110 604 _l
110 694 _l
284 729 _l
383 729 _l
383 83 _l
544 83 _l
544 0 _l
124 0 _l
124 83 _l
_cl}_d
/two{{636 0 73 0 536 742 _sc
192 83 _m
536 83 _l
536 0 _l
73 0 _l
73 83 _l
110 121 161 173 226 239 _c
290 304 331 346 348 365 _c
380 400 402 430 414 455 _c
426 479 433 504 433 528 _c
433 566 419 598 392 622 _c
365 646 330 659 286 659 _c
255 659 222 653 188 643 _c
154 632 117 616 78 594 _c
78 694 _l
118 710 155 722 189 730 _c
223 738 255 742 284 742 _c
}_e{359 742 419 723 464 685 _c
509 647 532 597 532 534 _c
532 504 526 475 515 449 _c
504 422 484 390 454 354 _c
446 344 420 317 376 272 _c
332 227 271 164 192 83 _c
_cl}_e}_d
/three{{636 0 76 -13 556 742 _sc
406 393 _m
453 383 490 362 516 330 _c
542 298 556 258 556 212 _c
556 140 531 84 482 45 _c
432 6 362 -13 271 -13 _c
240 -13 208 -10 176 -4 _c
144 1 110 10 76 22 _c
76 117 _l
103 101 133 89 166 81 _c
198 73 232 69 268 69 _c
330 69 377 81 409 105 _c
441 129 458 165 458 212 _c
458 254 443 288 413 312 _c
383 336 341 349 287 349 _c
}_e{202 349 _l
202 430 _l
291 430 _l
339 430 376 439 402 459 _c
428 478 441 506 441 543 _c
441 580 427 609 401 629 _c
374 649 336 659 287 659 _c
260 659 231 656 200 650 _c
169 644 135 635 98 623 _c
98 711 _l
135 721 170 729 203 734 _c
235 739 266 742 296 742 _c
370 742 429 725 473 691 _c
517 657 539 611 539 553 _c
539 513 527 479 504 451 _c
481 423 448 403 406 393 _c
_cl}_e}_d
/four{636 0 49 0 580 729 _sc
378 643 _m
129 254 _l
378 254 _l
378 643 _l
352 729 _m
476 729 _l
476 254 _l
580 254 _l
580 172 _l
476 172 _l
476 0 _l
378 0 _l
378 172 _l
49 172 _l
49 267 _l
352 729 _l
_cl}_d
/five{{636 0 77 -13 549 729 _sc
108 729 _m
495 729 _l
495 646 _l
198 646 _l
198 467 _l
212 472 227 476 241 478 _c
255 480 270 482 284 482 _c
365 482 429 459 477 415 _c
525 370 549 310 549 234 _c
549 155 524 94 475 51 _c
426 8 357 -13 269 -13 _c
238 -13 207 -10 175 -6 _c
143 -1 111 6 77 17 _c
77 116 _l
106 100 136 88 168 80 _c
199 72 232 69 267 69 _c
}_e{323 69 368 83 401 113 _c
433 143 450 183 450 234 _c
450 284 433 324 401 354 _c
368 384 323 399 267 399 _c
241 399 214 396 188 390 _c
162 384 135 375 108 363 _c
108 729 _l
_cl}_e}_d
/six{{636 0 70 -13 573 742 _sc
330 404 _m
286 404 251 388 225 358 _c
199 328 186 286 186 234 _c
186 181 199 139 225 109 _c
251 79 286 64 330 64 _c
374 64 409 79 435 109 _c
461 139 474 181 474 234 _c
474 286 461 328 435 358 _c
409 388 374 404 330 404 _c
526 713 _m
526 623 _l
501 635 476 644 451 650 _c
425 656 400 659 376 659 _c
310 659 260 637 226 593 _c
}_e{192 549 172 482 168 394 _c
187 422 211 444 240 459 _c
269 474 301 482 336 482 _c
409 482 467 459 509 415 _c
551 371 573 310 573 234 _c
573 159 550 99 506 54 _c
462 9 403 -13 330 -13 _c
246 -13 181 19 137 83 _c
92 147 70 241 70 364 _c
70 479 97 571 152 639 _c
206 707 280 742 372 742 _c
396 742 421 739 447 735 _c
472 730 498 723 526 713 _c
_cl}_e}_d
/seven{636 0 82 0 551 729 _sc
82 729 _m
551 729 _l
551 687 _l
286 0 _l
183 0 _l
432 646 _l
82 646 _l
82 729 _l
_cl}_d
/eight{{636 0 68 -13 568 742 _sc
318 346 _m
271 346 234 333 207 308 _c
180 283 167 249 167 205 _c
167 161 180 126 207 101 _c
234 76 271 64 318 64 _c
364 64 401 76 428 102 _c
455 127 469 161 469 205 _c
469 249 455 283 429 308 _c
402 333 365 346 318 346 _c
219 388 _m
177 398 144 418 120 447 _c
96 476 85 511 85 553 _c
85 611 105 657 147 691 _c
188 725 245 742 318 742 _c
}_e{390 742 447 725 489 691 _c
530 657 551 611 551 553 _c
551 511 539 476 515 447 _c
491 418 459 398 417 388 _c
464 377 501 355 528 323 _c
554 291 568 251 568 205 _c
568 134 546 80 503 43 _c
459 5 398 -13 318 -13 _c
237 -13 175 5 132 43 _c
89 80 68 134 68 205 _c
68 251 81 291 108 323 _c
134 355 171 377 219 388 _c
183 544 _m
183 506 194 476 218 455 _c
}_e{242 434 275 424 318 424 _c
360 424 393 434 417 455 _c
441 476 453 506 453 544 _c
453 582 441 611 417 632 _c
393 653 360 664 318 664 _c
275 664 242 653 218 632 _c
194 611 183 582 183 544 _c
_cl}_e}_d
/C{{698 0 56 -13 644 742 _sc
644 673 _m
644 569 _l
610 599 575 622 537 638 _c
499 653 460 661 418 661 _c
334 661 270 635 226 584 _c
182 533 160 460 160 364 _c
160 268 182 194 226 143 _c
270 92 334 67 418 67 _c
460 67 499 74 537 90 _c
575 105 610 128 644 159 _c
644 56 _l
609 32 572 15 534 4 _c
496 -7 455 -13 412 -13 _c
302 -13 215 20 151 87 _c
}_e{87 154 56 246 56 364 _c
56 481 87 573 151 641 _c
215 708 302 742 412 742 _c
456 742 497 736 535 725 _c
573 713 610 696 644 673 _c
_cl}_e}_d
/P{603 0 98 0 569 729 _sc
197 648 _m
197 374 _l
321 374 _l
367 374 402 385 427 409 _c
452 433 465 467 465 511 _c
465 555 452 588 427 612 _c
402 636 367 648 321 648 _c
197 648 _l
98 729 _m
321 729 _l
402 729 464 710 506 673 _c
548 636 569 582 569 511 _c
569 439 548 384 506 348 _c
464 311 402 293 321 293 _c
197 293 _l
197 0 _l
98 0 _l
98 729 _l
_cl}_d
/a{{613 0 60 -13 522 560 _sc
343 275 _m
270 275 220 266 192 250 _c
164 233 150 205 150 165 _c
150 133 160 107 181 89 _c
202 70 231 61 267 61 _c
317 61 357 78 387 114 _c
417 149 432 196 432 255 _c
432 275 _l
343 275 _l
522 312 _m
522 0 _l
432 0 _l
432 83 _l
411 49 385 25 355 10 _c
325 -5 287 -13 243 -13 _c
187 -13 142 2 109 33 _c
76 64 60 106 60 159 _c
}_e{60 220 80 266 122 298 _c
163 329 224 345 306 345 _c
432 345 _l
432 354 _l
432 395 418 427 391 450 _c
364 472 326 484 277 484 _c
245 484 215 480 185 472 _c
155 464 127 453 100 439 _c
100 522 _l
132 534 164 544 195 550 _c
226 556 256 560 286 560 _c
365 560 424 539 463 498 _c
502 457 522 395 522 312 _c
_cl}_e}_d
/b{{635 0 91 -13 580 760 _sc
487 273 _m
487 339 473 390 446 428 _c
418 466 381 485 334 485 _c
286 485 249 466 222 428 _c
194 390 181 339 181 273 _c
181 207 194 155 222 117 _c
249 79 286 61 334 61 _c
381 61 418 79 446 117 _c
473 155 487 207 487 273 _c
181 464 _m
199 496 223 520 252 536 _c
281 552 316 560 356 560 _c
422 560 476 533 518 481 _c
559 428 580 359 580 273 _c
}_e{580 187 559 117 518 65 _c
476 13 422 -13 356 -13 _c
316 -13 281 -5 252 10 _c
223 25 199 49 181 82 _c
181 0 _l
91 0 _l
91 760 _l
181 760 _l
181 464 _l
_cl}_e}_d
/c{{550 0 55 -13 488 560 _sc
488 526 _m
488 442 _l
462 456 437 466 411 473 _c
385 480 360 484 334 484 _c
276 484 230 465 198 428 _c
166 391 150 339 150 273 _c
150 206 166 154 198 117 _c
230 80 276 62 334 62 _c
360 62 385 65 411 72 _c
437 79 462 90 488 104 _c
488 21 _l
462 9 436 0 410 -5 _c
383 -10 354 -13 324 -13 _c
242 -13 176 12 128 64 _c
}_e{79 115 55 185 55 273 _c
55 362 79 432 128 483 _c
177 534 244 560 330 560 _c
358 560 385 557 411 551 _c
437 545 463 537 488 526 _c
_cl}_e}_d
/d{{635 0 55 -13 544 760 _sc
454 464 _m
454 760 _l
544 760 _l
544 0 _l
454 0 _l
454 82 _l
435 49 411 25 382 10 _c
353 -5 319 -13 279 -13 _c
213 -13 159 13 117 65 _c
75 117 55 187 55 273 _c
55 359 75 428 117 481 _c
159 533 213 560 279 560 _c
319 560 353 552 382 536 _c
411 520 435 496 454 464 _c
148 273 _m
148 207 161 155 188 117 _c
215 79 253 61 301 61 _c
}_e{348 61 385 79 413 117 _c
440 155 454 207 454 273 _c
454 339 440 390 413 428 _c
385 466 348 485 301 485 _c
253 485 215 466 188 428 _c
161 390 148 339 148 273 _c
_cl}_e}_d
/e{{615 0 55 -13 562 560 _sc
562 296 _m
562 252 _l
149 252 _l
153 190 171 142 205 110 _c
238 78 284 62 344 62 _c
378 62 412 66 444 74 _c
476 82 509 95 541 113 _c
541 28 _l
509 14 476 3 442 -3 _c
408 -9 373 -13 339 -13 _c
251 -13 182 12 131 62 _c
80 112 55 181 55 268 _c
55 357 79 428 127 481 _c
175 533 241 560 323 560 _c
397 560 455 536 498 489 _c
}_e{540 441 562 377 562 296 _c
472 322 _m
471 371 457 410 431 440 _c
404 469 368 484 324 484 _c
274 484 234 469 204 441 _c
174 413 156 373 152 322 _c
472 322 _l
_cl}_e}_d
/f{352 0 23 0 371 760 _sc
371 760 _m
371 685 _l
285 685 _l
253 685 230 678 218 665 _c
205 652 199 629 199 595 _c
199 547 _l
347 547 _l
347 477 _l
199 477 _l
199 0 _l
109 0 _l
109 477 _l
23 477 _l
23 547 _l
109 547 _l
109 585 _l
109 645 123 690 151 718 _c
179 746 224 760 286 760 _c
371 760 _l
_cl}_d
/g{{635 0 55 -207 544 560 _sc
454 280 _m
454 344 440 395 414 431 _c
387 467 349 485 301 485 _c
253 485 215 467 188 431 _c
161 395 148 344 148 280 _c
148 215 161 165 188 129 _c
215 93 253 75 301 75 _c
349 75 387 93 414 129 _c
440 165 454 215 454 280 _c
544 68 _m
544 -24 523 -93 482 -139 _c
440 -184 377 -207 292 -207 _c
260 -207 231 -204 203 -200 _c
175 -195 147 -188 121 -178 _c
}_e{121 -91 _l
147 -105 173 -115 199 -122 _c
225 -129 251 -133 278 -133 _c
336 -133 380 -117 410 -87 _c
439 -56 454 -10 454 52 _c
454 96 _l
435 64 411 40 382 24 _c
353 8 319 0 279 0 _c
211 0 157 25 116 76 _c
75 127 55 195 55 280 _c
55 364 75 432 116 483 _c
157 534 211 560 279 560 _c
319 560 353 552 382 536 _c
411 520 435 496 454 464 _c
454 547 _l
544 547 _l
}_e{544 68 _l
_cl}_e}_d
/i{278 0 94 0 184 760 _sc
94 547 _m
184 547 _l
184 0 _l
94 0 _l
94 547 _l
94 760 _m
184 760 _l
184 646 _l
94 646 _l
94 760 _l
_cl}_d
/j{278 0 -17 -207 184 760 _sc
94 547 _m
184 547 _l
184 -9 _l
184 -78 170 -128 144 -160 _c
117 -191 74 -207 16 -207 _c
-17 -207 _l
-17 -131 _l
6 -131 _l
40 -131 63 -123 75 -107 _c
87 -91 94 -58 94 -9 _c
94 547 _l
94 760 _m
184 760 _l
184 646 _l
94 646 _l
94 760 _l
_cl}_d
/k{579 0 91 0 576 760 _sc
91 760 _m
181 760 _l
181 311 _l
449 547 _l
564 547 _l
274 291 _l
576 0 _l
459 0 _l
181 267 _l
181 0 _l
91 0 _l
91 760 _l
_cl}_d
/l{278 0 94 0 184 760 _sc
94 760 _m
184 760 _l
184 0 _l
94 0 _l
94 760 _l
_cl}_d
/m{{974 0 91 0 889 560 _sc
520 442 _m
542 482 569 511 600 531 _c
631 550 668 560 711 560 _c
767 560 811 540 842 500 _c
873 460 889 403 889 330 _c
889 0 _l
799 0 _l
799 327 _l
799 379 789 418 771 444 _c
752 469 724 482 686 482 _c
639 482 602 466 575 435 _c
548 404 535 362 535 309 _c
535 0 _l
445 0 _l
445 327 _l
445 379 435 418 417 444 _c
398 469 369 482 331 482 _c
}_e{285 482 248 466 221 435 _c
194 404 181 362 181 309 _c
181 0 _l
91 0 _l
91 547 _l
181 547 _l
181 462 _l
201 495 226 520 255 536 _c
283 552 317 560 357 560 _c
397 560 430 550 458 530 _c
486 510 506 480 520 442 _c
_cl}_e}_d
/n{634 0 91 0 549 560 _sc
549 330 _m
549 0 _l
459 0 _l
459 327 _l
459 379 448 417 428 443 _c
408 469 378 482 338 482 _c
289 482 251 466 223 435 _c
195 404 181 362 181 309 _c
181 0 _l
91 0 _l
91 547 _l
181 547 _l
181 462 _l
202 494 227 519 257 535 _c
286 551 320 560 358 560 _c
420 560 468 540 500 501 _c
532 462 549 405 549 330 _c
_cl}_d
/o{612 0 55 -13 557 560 _sc
306 484 _m
258 484 220 465 192 427 _c
164 389 150 338 150 273 _c
150 207 163 156 191 118 _c
219 80 257 62 306 62 _c
354 62 392 80 420 118 _c
448 156 462 207 462 273 _c
462 337 448 389 420 427 _c
392 465 354 484 306 484 _c
306 560 _m
384 560 445 534 490 484 _c
534 433 557 363 557 273 _c
557 183 534 113 490 63 _c
445 12 384 -13 306 -13 _c
227 -13 165 12 121 63 _c
77 113 55 183 55 273 _c
55 363 77 433 121 484 _c
165 534 227 560 306 560 _c
_cl}_d
/p{{635 0 91 -207 580 560 _sc
181 82 _m
181 -207 _l
91 -207 _l
91 547 _l
181 547 _l
181 464 _l
199 496 223 520 252 536 _c
281 552 316 560 356 560 _c
422 560 476 533 518 481 _c
559 428 580 359 580 273 _c
580 187 559 117 518 65 _c
476 13 422 -13 356 -13 _c
316 -13 281 -5 252 10 _c
223 25 199 49 181 82 _c
487 273 _m
487 339 473 390 446 428 _c
418 466 381 485 334 485 _c
}_e{286 485 249 466 222 428 _c
194 390 181 339 181 273 _c
181 207 194 155 222 117 _c
249 79 286 61 334 61 _c
381 61 418 79 446 117 _c
473 155 487 207 487 273 _c
_cl}_e}_d
/r{411 0 91 0 411 560 _sc
411 463 _m
401 469 390 473 378 476 _c
366 478 353 480 339 480 _c
288 480 249 463 222 430 _c
194 397 181 350 181 288 _c
181 0 _l
91 0 _l
91 547 _l
181 547 _l
181 462 _l
199 495 224 520 254 536 _c
284 552 321 560 365 560 _c
371 560 378 559 386 559 _c
393 558 401 557 411 555 _c
411 463 _l
_cl}_d
/s{{521 0 54 -13 472 560 _sc
443 531 _m
443 446 _l
417 458 391 468 364 475 _c
336 481 308 485 279 485 _c
234 485 200 478 178 464 _c
156 450 145 430 145 403 _c
145 382 153 366 169 354 _c
185 342 217 330 265 320 _c
296 313 _l
360 299 405 279 432 255 _c
458 230 472 195 472 151 _c
472 100 452 60 412 31 _c
372 1 316 -13 246 -13 _c
216 -13 186 -10 154 -5 _c
}_e{122 0 89 8 54 20 _c
54 113 _l
87 95 120 82 152 74 _c
184 65 216 61 248 61 _c
290 61 323 68 346 82 _c
368 96 380 117 380 144 _c
380 168 371 187 355 200 _c
339 213 303 226 247 238 _c
216 245 _l
160 257 119 275 95 299 _c
70 323 58 356 58 399 _c
58 450 76 490 112 518 _c
148 546 200 560 268 560 _c
301 560 332 557 362 552 _c
391 547 418 540 443 531 _c
}_e{_cl}_e}_d
/t{392 0 27 0 368 702 _sc
183 702 _m
183 547 _l
368 547 _l
368 477 _l
183 477 _l
183 180 _l
183 135 189 106 201 94 _c
213 81 238 75 276 75 _c
368 75 _l
368 0 _l
276 0 _l
206 0 158 13 132 39 _c
106 65 93 112 93 180 _c
93 477 _l
27 477 _l
27 547 _l
93 547 _l
93 702 _l
183 702 _l
_cl}_d
/u{634 0 85 -13 543 547 _sc
85 216 _m
85 547 _l
175 547 _l
175 219 _l
175 167 185 129 205 103 _c
225 77 255 64 296 64 _c
344 64 383 79 411 110 _c
439 141 453 183 453 237 _c
453 547 _l
543 547 _l
543 0 _l
453 0 _l
453 84 _l
431 50 405 26 377 10 _c
348 -5 315 -13 277 -13 _c
214 -13 166 6 134 45 _c
101 83 85 140 85 216 _c
_cl}_d
/v{592 0 30 0 562 547 _sc
30 547 _m
125 547 _l
296 88 _l
467 547 _l
562 547 _l
357 0 _l
235 0 _l
30 547 _l
_cl}_d
/w{818 0 42 0 776 547 _sc
42 547 _m
132 547 _l
244 120 _l
356 547 _l
462 547 _l
574 120 _l
686 547 _l
776 547 _l
633 0 _l
527 0 _l
409 448 _l
291 0 _l
185 0 _l
42 547 _l
_cl}_d
/x{592 0 29 0 559 547 _sc
549 547 _m
351 281 _l
559 0 _l
453 0 _l
294 215 _l
135 0 _l
29 0 _l
241 286 _l
47 547 _l
153 547 _l
298 352 _l
443 547 _l
549 547 _l
_cl}_d
/y{592 0 30 -207 562 547 _sc
322 -50 _m
296 -114 271 -157 247 -177 _c
223 -197 191 -207 151 -207 _c
79 -207 _l
79 -132 _l
132 -132 _l
156 -132 175 -126 189 -114 _c
203 -102 218 -75 235 -31 _c
251 9 _l
30 547 _l
125 547 _l
296 119 _l
467 547 _l
562 547 _l
322 -50 _l
_cl}_d
end readonly def

/BuildGlyph
 {exch begin
 CharStrings exch
 2 copy known not{pop /.notdef}if
 true 3 1 roll get exec
 end}_d

/BuildChar {
 1 index /Encoding get exch get
 1 index /BuildGlyph get exec
}_d

FontName currentdict end definefont pop
end
%%EndProlog
mpldict begin
18 180.9 translate
576 430.2 0 0 clipbox
gsave
0 0 m
576 0 l
576 430.2 l
0 430.2 l
cl
1.000 setgray
fill
grestore
gsave
72 43.02 m
518.4 43.02 l
518.4 387.18 l
72 387.18 l
cl
1.000 setgray
fill
grestore
1.000 setlinewidth
1 setlinejoin
2 setlinecap
[] 0 setdash
0.000 0.000 1.000 setrgbcolor
gsave
446.4 344.2 72 43.02 clipbox
89.856 44.7408 m
107.712 46.4616 l
125.568 51.624 l
143.424 71.4132 l
161.28 99.8064 l
179.136 132.071 l
196.992 140.245 l
214.848 191.009 l
232.704 196.601 l
250.56 234.889 l
268.416 247.795 l
286.272 259.411 l
304.128 269.735 l
321.984 304.151 l
339.84 293.827 l
357.696 320.929 l
375.552 313.186 l
393.408 326.092 l
411.264 331.684 l
429.12 331.684 l
446.976 332.975 l
464.832 345.02 l
482.688 336.847 l
500.544 354.055 l
stroke
grestore
0.000 0.500 0.000 setrgbcolor
gsave
446.4 344.2 72 43.02 clipbox
89.856 151.861 m
107.712 209.077 l
125.568 224.134 l
143.424 235.75 l
161.28 262.852 l
179.136 256.829 l
196.992 282.641 l
214.848 267.584 l
232.704 296.838 l
250.56 295.117 l
268.416 298.129 l
286.272 308.884 l
304.128 311.465 l
321.984 324.801 l
339.84 318.778 l
357.696 311.035 l
375.552 326.522 l
393.408 329.533 l
411.264 326.522 l
429.12 331.254 l
446.976 334.696 l
464.832 325.661 l
482.688 337.277 l
500.544 329.103 l
stroke
grestore
1.000 0.000 0.000 setrgbcolor
gsave
446.4 344.2 72 43.02 clipbox
89.856 44.7408 m
107.712 50.7636 l
125.568 73.134 l
143.424 115.724 l
161.28 118.735 l
179.136 169.929 l
196.992 200.043 l
214.848 245.644 l
232.704 250.807 l
250.56 259.841 l
268.416 275.328 l
286.272 288.664 l
304.128 291.245 l
321.984 314.046 l
339.84 316.627 l
357.696 326.952 l
375.552 345.881 l
393.408 341.579 l
411.264 312.325 l
429.12 318.348 l
446.976 362.659 l
464.832 344.16 l
482.688 334.696 l
500.544 368.681 l
stroke
grestore
0.000 0.750 0.750 setrgbcolor
gsave
446.4 344.2 72 43.02 clipbox
89.856 43.8804 m
107.712 233.599 l
125.568 233.599 l
143.424 233.599 l
161.28 233.599 l
179.136 233.599 l
196.992 233.599 l
214.848 233.599 l
232.704 233.599 l
250.56 233.599 l
268.416 233.599 l
286.272 233.599 l
304.128 233.599 l
321.984 233.599 l
339.84 233.599 l
357.696 233.599 l
375.552 233.599 l
393.408 233.599 l
411.264 233.599 l
429.12 233.599 l
446.976 233.599 l
464.832 233.599 l
482.688 233.599 l
500.544 233.599 l
stroke
grestore
0.750 0.000 0.750 setrgbcolor
gsave
446.4 344.2 72 43.02 clipbox
89.856 43.8804 m
107.712 45.6012 l
125.568 233.599 l
143.424 233.599 l
161.28 233.599 l
179.136 233.599 l
196.992 233.599 l
214.848 233.599 l
232.704 233.599 l
250.56 233.599 l
268.416 233.599 l
286.272 233.599 l
304.128 233.599 l
321.984 233.599 l
339.84 233.599 l
357.696 233.599 l
375.552 233.599 l
393.408 233.599 l
411.264 233.599 l
429.12 233.599 l
446.976 233.599 l
464.832 233.599 l
482.688 233.599 l
500.544 233.599 l
stroke
grestore
0.750 0.750 0.000 setrgbcolor
gsave
446.4 344.2 72 43.02 clipbox
89.856 43.8804 m
107.712 45.6012 l
125.568 64.53 l
143.424 83.889 l
161.28 107.55 l
179.136 160.034 l
196.992 175.952 l
214.848 196.171 l
232.704 227.146 l
250.56 229.297 l
268.416 273.177 l
286.272 322.65 l
304.128 322.65 l
321.984 308.453 l
339.84 341.149 l
357.696 344.59 l
375.552 363.949 l
393.408 347.171 l
411.264 362.228 l
429.12 363.949 l
446.976 377.285 l
464.832 382.878 l
482.688 377.716 l
500.544 360.508 l
stroke
grestore
0.000 setgray
gsave
446.4 344.2 72 43.02 clipbox
89.856 59.3676 m
107.712 99.3762 l
125.568 112.712 l
143.424 163.046 l
161.28 209.938 l
179.136 199.613 l
196.992 219.832 l
214.848 268.015 l
232.704 261.131 l
250.56 269.735 l
268.416 299.849 l
286.272 290.815 l
304.128 308.453 l
321.984 305.012 l
339.84 335.986 l
357.696 292.106 l
375.552 330.824 l
393.408 297.698 l
411.264 257.26 l
429.12 303.291 l
446.976 360.508 l
464.832 320.499 l
482.688 320.929 l
500.544 251.667 l
stroke
grestore
0.000 0.000 1.000 setrgbcolor
gsave
446.4 344.2 72 43.02 clipbox
89.856 177.242 m
107.712 240.912 l
125.568 183.265 l
143.424 272.317 l
161.28 268.445 l
179.136 281.781 l
196.992 281.781 l
214.848 295.117 l
232.704 292.966 l
250.56 275.328 l
268.416 308.023 l
286.272 317.918 l
304.128 293.827 l
321.984 340.718 l
339.84 341.149 l
357.696 335.556 l
375.552 325.231 l
393.408 331.254 l
411.264 347.602 l
429.12 329.533 l
446.976 335.126 l
464.832 363.519 l
482.688 311.035 l
500.544 327.382 l
stroke
grestore
0.000 0.500 0.000 setrgbcolor
gsave
446.4 344.2 72 43.02 clipbox
89.856 56.3562 m
107.712 45.6012 l
125.568 54.2052 l
143.424 121.316 l
161.28 110.131 l
179.136 159.174 l
196.992 154.442 l
214.848 219.832 l
232.704 230.587 l
250.56 239.191 l
268.416 260.271 l
286.272 322.65 l
304.128 322.65 l
321.984 308.453 l
339.84 341.149 l
357.696 344.59 l
375.552 363.949 l
393.408 346.741 l
411.264 362.228 l
429.12 363.949 l
446.976 377.285 l
464.832 382.878 l
482.688 377.716 l
500.544 360.508 l
stroke
grestore
0 setlinejoin
0.000 setgray
gsave
72 387.18 m
518.4 387.18 l
stroke
grestore
gsave
518.4 43.02 m
518.4 387.18 l
stroke
grestore
gsave
72 43.02 m
518.4 43.02 l
stroke
grestore
gsave
72 43.02 m
72 387.18 l
stroke
grestore
0.500 setlinewidth
1 setlinejoin
0 setlinecap
gsave
/o {
gsave
newpath
translate
0.5 setlinewidth
1 setlinejoin
0 setlinecap
0 0 m
0 4 l
gsave
0.000 setgray
fill
grestore
stroke
grestore
} bind def
72 43.02 o
grestore
gsave
/o {
gsave
newpath
translate
0.5 setlinewidth
1 setlinejoin
0 setlinecap
0 0 m
0 -4 l
gsave
0.000 setgray
fill
grestore
stroke
grestore
} bind def
72 387.18 o
grestore
/BitstreamVeraSans-Roman findfont
12.000 scalefont
setfont
gsave
59.554688 29.895000 translate
0.000000 rotate
0.000000 0.000000 m /zero glyphshow
7.634766 0.000000 m /period glyphshow
11.449219 0.000000 m /zero glyphshow
19.083984 0.000000 m /five glyphshow
grestore
gsave
/o {
gsave
newpath
translate
0.5 setlinewidth
1 setlinejoin
0 setlinecap
0 0 m
0 4 l
gsave
0.000 setgray
fill
grestore
stroke
grestore
} bind def
161.28 43.02 o
grestore
gsave
/o {
gsave
newpath
translate
0.5 setlinewidth
1 setlinejoin
0 setlinecap
0 0 m
0 -4 l
gsave
0.000 setgray
fill
grestore
stroke
grestore
} bind def
161.28 387.18 o
grestore
gsave
148.709688 29.895000 translate
0.000000 rotate
0.000000 0.000000 m /zero glyphshow
7.634766 0.000000 m /period glyphshow
11.449219 0.000000 m /one glyphshow
19.083984 0.000000 m /zero glyphshow
grestore
gsave
/o {
gsave
newpath
translate
0.5 setlinewidth
1 setlinejoin
0 setlinecap
0 0 m
0 4 l
gsave
0.000 setgray
fill
grestore
stroke
grestore
} bind def
250.56 43.02 o
grestore
gsave
/o {
gsave
newpath
translate
0.5 setlinewidth
1 setlinejoin
0 setlinecap
0 0 m
0 -4 l
gsave
0.000 setgray
fill
grestore
stroke
grestore
} bind def
250.56 387.18 o
grestore
gsave
238.114688 29.895000 translate
0.000000 rotate
0.000000 0.000000 m /zero glyphshow
7.634766 0.000000 m /period glyphshow
11.449219 0.000000 m /one glyphshow
19.083984 0.000000 m /five glyphshow
grestore
gsave
/o {
gsave
newpath
translate
0.5 setlinewidth
1 setlinejoin
0 setlinecap
0 0 m
0 4 l
gsave
0.000 setgray
fill
grestore
stroke
grestore
} bind def
339.84 43.02 o
grestore
gsave
/o {
gsave
newpath
translate
0.5 setlinewidth
1 setlinejoin
0 setlinecap
0 0 m
0 -4 l
gsave
0.000 setgray
fill
grestore
stroke
grestore
} bind def
339.84 387.18 o
grestore
gsave
327.269688 29.895000 translate
0.000000 rotate
0.000000 0.000000 m /zero glyphshow
7.634766 0.000000 m /period glyphshow
11.449219 0.000000 m /two glyphshow
19.083984 0.000000 m /zero glyphshow
grestore
gsave
/o {
gsave
newpath
translate
0.5 setlinewidth
1 setlinejoin
0 setlinecap
0 0 m
0 4 l
gsave
0.000 setgray
fill
grestore
stroke
grestore
} bind def
429.12 43.02 o
grestore
gsave
/o {
gsave
newpath
translate
0.5 setlinewidth
1 setlinejoin
0 setlinecap
0 0 m
0 -4 l
gsave
0.000 setgray
fill
grestore
stroke
grestore
} bind def
429.12 387.18 o
grestore
gsave
416.674688 29.895000 translate
0.000000 rotate
0.000000 0.000000 m /zero glyphshow
7.634766 0.000000 m /period glyphshow
11.449219 0.000000 m /two glyphshow
19.083984 0.000000 m /five glyphshow
grestore
gsave
/o {
gsave
newpath
translate
0.5 setlinewidth
1 setlinejoin
0 setlinecap
0 0 m
0 4 l
gsave
0.000 setgray
fill
grestore
stroke
grestore
} bind def
518.4 43.02 o
grestore
gsave
/o {
gsave
newpath
translate
0.5 setlinewidth
1 setlinejoin
0 setlinecap
0 0 m
0 -4 l
gsave
0.000 setgray
fill
grestore
stroke
grestore
} bind def
518.4 387.18 o
grestore
gsave
505.829687 29.895000 translate
0.000000 rotate
0.000000 0.000000 m /zero glyphshow
7.634766 0.000000 m /period glyphshow
11.449219 0.000000 m /three glyphshow
19.083984 0.000000 m /zero glyphshow
grestore
gsave
224.262500 13.270000 translate
0.000000 rotate
0.000000 0.000000 m /e glyphshow
7.132812 0.000000 m /x glyphshow
14.234375 0.000000 m /t glyphshow
18.939453 0.000000 m /e glyphshow
26.322266 0.000000 m /r glyphshow
31.005859 0.000000 m /n glyphshow
38.611328 0.000000 m /a glyphshow
45.964844 0.000000 m /l glyphshow
49.298828 0.000000 m /space glyphshow
53.113281 0.000000 m /l glyphshow
56.447266 0.000000 m /i glyphshow
59.781250 0.000000 m /n glyphshow
67.386719 0.000000 m /k glyphshow
74.335938 0.000000 m /space glyphshow
78.150391 0.000000 m /p glyphshow
85.767578 0.000000 m /r glyphshow
90.451172 0.000000 m /o glyphshow
97.792969 0.000000 m /b glyphshow
105.410156 0.000000 m /a glyphshow
112.763672 0.000000 m /b glyphshow
120.380859 0.000000 m /i glyphshow
123.714844 0.000000 m /l glyphshow
127.048828 0.000000 m /i glyphshow
130.382812 0.000000 m /t glyphshow
135.087891 0.000000 m /y glyphshow
grestore
gsave
/o {
gsave
newpath
translate
0.5 setlinewidth
1 setlinejoin
0 setlinecap
0 0 m
4 0 l
gsave
0.000 setgray
fill
grestore
stroke
grestore
} bind def
72 43.02 o
grestore
gsave
/o {
gsave
newpath
translate
0.5 setlinewidth
1 setlinejoin
0 setlinecap
0 0 m
-4 0 l
gsave
0.000 setgray
fill
grestore
stroke
grestore
} bind def
518.4 43.02 o
grestore
gsave
61.953125 39.707500 translate
0.000000 rotate
0.000000 0.000000 m /zero glyphshow
grestore
gsave
/o {
gsave
newpath
translate
0.5 setlinewidth
1 setlinejoin
0 setlinecap
0 0 m
4 0 l
gsave
0.000 setgray
fill
grestore
stroke
grestore
} bind def
72 86.04 o
grestore
gsave
/o {
gsave
newpath
translate
0.5 setlinewidth
1 setlinejoin
0 setlinecap
0 0 m
-4 0 l
gsave
0.000 setgray
fill
grestore
stroke
grestore
} bind def
518.4 86.04 o
grestore
gsave
47.187500 82.727500 translate
0.000000 rotate
0.000000 0.000000 m /one glyphshow
7.634766 0.000000 m /zero glyphshow
15.269531 0.000000 m /zero glyphshow
grestore
gsave
/o {
gsave
newpath
translate
0.5 setlinewidth
1 setlinejoin
0 setlinecap
0 0 m
4 0 l
gsave
0.000 setgray
fill
grestore
stroke
grestore
} bind def
72 129.06 o
grestore
gsave
/o {
gsave
newpath
translate
0.5 setlinewidth
1 setlinejoin
0 setlinecap
0 0 m
-4 0 l
gsave
0.000 setgray
fill
grestore
stroke
grestore
} bind def
518.4 129.06 o
grestore
gsave
46.750000 125.747500 translate
0.000000 rotate
0.000000 0.000000 m /two glyphshow
7.634766 0.000000 m /zero glyphshow
15.269531 0.000000 m /zero glyphshow
grestore
gsave
/o {
gsave
newpath
translate
0.5 setlinewidth
1 setlinejoin
0 setlinecap
0 0 m
4 0 l
gsave
0.000 setgray
fill
grestore
stroke
grestore
} bind def
72 172.08 o
grestore
gsave
/o {
gsave
newpath
translate
0.5 setlinewidth
1 setlinejoin
0 setlinecap
0 0 m
-4 0 l
gsave
0.000 setgray
fill
grestore
stroke
grestore
} bind def
518.4 172.08 o
grestore
gsave
46.796875 168.767500 translate
0.000000 rotate
0.000000 0.000000 m /three glyphshow
7.634766 0.000000 m /zero glyphshow
15.269531 0.000000 m /zero glyphshow
grestore
gsave
/o {
gsave
newpath
translate
0.5 setlinewidth
1 setlinejoin
0 setlinecap
0 0 m
4 0 l
gsave
0.000 setgray
fill
grestore
stroke
grestore
} bind def
72 215.1 o
grestore
gsave
/o {
gsave
newpath
translate
0.5 setlinewidth
1 setlinejoin
0 setlinecap
0 0 m
-4 0 l
gsave
0.000 setgray
fill
grestore
stroke
grestore
} bind def
518.4 215.1 o
grestore
gsave
46.468750 211.787500 translate
0.000000 rotate
0.000000 0.000000 m /four glyphshow
7.634766 0.000000 m /zero glyphshow
15.269531 0.000000 m /zero glyphshow
grestore
gsave
/o {
gsave
newpath
translate
0.5 setlinewidth
1 setlinejoin
0 setlinecap
0 0 m
4 0 l
gsave
0.000 setgray
fill
grestore
stroke
grestore
} bind def
72 258.12 o
grestore
gsave
/o {
gsave
newpath
translate
0.5 setlinewidth
1 setlinejoin
0 setlinecap
0 0 m
-4 0 l
gsave
0.000 setgray
fill
grestore
stroke
grestore
} bind def
518.4 258.12 o
grestore
gsave
46.796875 254.807500 translate
0.000000 rotate
0.000000 0.000000 m /five glyphshow
7.634766 0.000000 m /zero glyphshow
15.269531 0.000000 m /zero glyphshow
grestore
gsave
/o {
gsave
newpath
translate
0.5 setlinewidth
1 setlinejoin
0 setlinecap
0 0 m
4 0 l
gsave
0.000 setgray
fill
grestore
stroke
grestore
} bind def
72 301.14 o
grestore
gsave
/o {
gsave
newpath
translate
0.5 setlinewidth
1 setlinejoin
0 setlinecap
0 0 m
-4 0 l
gsave
0.000 setgray
fill
grestore
stroke
grestore
} bind def
518.4 301.14 o
grestore
gsave
46.718750 297.827500 translate
0.000000 rotate
0.000000 0.000000 m /six glyphshow
7.634766 0.000000 m /zero glyphshow
15.269531 0.000000 m /zero glyphshow
grestore
gsave
/o {
gsave
newpath
translate
0.5 setlinewidth
1 setlinejoin
0 setlinecap
0 0 m
4 0 l
gsave
0.000 setgray
fill
grestore
stroke
grestore
} bind def
72 344.16 o
grestore
gsave
/o {
gsave
newpath
translate
0.5 setlinewidth
1 setlinejoin
0 setlinecap
0 0 m
-4 0 l
gsave
0.000 setgray
fill
grestore
stroke
grestore
} bind def
518.4 344.16 o
grestore
gsave
46.859375 340.847500 translate
0.000000 rotate
0.000000 0.000000 m /seven glyphshow
7.634766 0.000000 m /zero glyphshow
15.269531 0.000000 m /zero glyphshow
grestore
gsave
/o {
gsave
newpath
translate
0.5 setlinewidth
1 setlinejoin
0 setlinecap
0 0 m
4 0 l
gsave
0.000 setgray
fill
grestore
stroke
grestore
} bind def
72 387.18 o
grestore
gsave
/o {
gsave
newpath
translate
0.5 setlinewidth
1 setlinejoin
0 setlinecap
0 0 m
-4 0 l
gsave
0.000 setgray
fill
grestore
stroke
grestore
} bind def
518.4 387.18 o
grestore
gsave
46.687500 383.867500 translate
0.000000 rotate
0.000000 0.000000 m /eight glyphshow
7.634766 0.000000 m /zero glyphshow
15.269531 0.000000 m /zero glyphshow
grestore
gsave
38.968750 162.498437 translate
90.000000 rotate
0.000000 0.000000 m /s glyphshow
6.251953 0.000000 m /p glyphshow
13.869141 0.000000 m /l glyphshow
17.203125 0.000000 m /i glyphshow
20.537109 0.000000 m /t glyphshow
25.242188 0.000000 m /hyphen glyphshow
29.572266 0.000000 m /j glyphshow
32.906250 0.000000 m /o glyphshow
40.248047 0.000000 m /i glyphshow
43.582031 0.000000 m /n glyphshow
51.187500 0.000000 m /space glyphshow
55.001953 0.000000 m /d glyphshow
62.619141 0.000000 m /i glyphshow
65.953125 0.000000 m /s glyphshow
72.205078 0.000000 m /t glyphshow
76.910156 0.000000 m /a glyphshow
84.263672 0.000000 m /n glyphshow
91.869141 0.000000 m /c glyphshow
98.466797 0.000000 m /e glyphshow
grestore
1.000 setlinewidth
0 setlinejoin
gsave
79.2 188.938 m
215.774 188.938 l
215.774 379.98 l
79.2 379.98 l
cl
gsave
1.000 setgray
fill
grestore
stroke
grestore
1 setlinejoin
2 setlinecap
0.000 0.000 1.000 setrgbcolor
gsave
89.28 368.619 m
109.44 368.619 l
stroke
grestore
0.000 setgray
/BitstreamVeraSans-Roman findfont
14.400 scalefont
setfont
gsave
125.280000 363.579375 translate
0.000000 rotate
0.000000 0.000000 m /s glyphshow
7.489319 0.000000 m /p glyphshow
16.614075 0.000000 m /i glyphshow
20.607910 0.000000 m /n glyphshow
29.718628 0.000000 m /g glyphshow
38.843384 0.000000 m /l glyphshow
42.837219 0.000000 m /a glyphshow
51.646118 0.000000 m /s glyphshow
59.135437 0.000000 m /s glyphshow
grestore
0.000 0.500 0.000 setrgbcolor
gsave
89.28 347.873 m
109.44 347.873 l
stroke
grestore
0.000 setgray
gsave
125.280000 342.832500 translate
0.000000 rotate
0.000000 0.000000 m /f glyphshow
5.060730 0.000000 m /a glyphshow
13.869629 0.000000 m /s glyphshow
21.358948 0.000000 m /t glyphshow
26.995239 0.000000 m /g glyphshow
36.119995 0.000000 m /r glyphshow
41.655029 0.000000 m /e glyphshow
50.499023 0.000000 m /e glyphshow
59.343018 0.000000 m /d glyphshow
68.467773 0.000000 m /y glyphshow
grestore
1.000 0.000 0.000 setrgbcolor
gsave
89.28 327.126 m
109.44 327.126 l
stroke
grestore
0.000 setgray
gsave
125.280000 322.085625 translate
0.000000 rotate
0.000000 0.000000 m /w glyphshow
11.756897 0.000000 m /a glyphshow
20.565796 0.000000 m /l glyphshow
24.559631 0.000000 m /k glyphshow
32.884216 0.000000 m /t glyphshow
38.520508 0.000000 m /r glyphshow
44.430542 0.000000 m /a glyphshow
53.239441 0.000000 m /p glyphshow
grestore
0.000 0.750 0.750 setrgbcolor
gsave
89.28 306.379 m
109.44 306.379 l
stroke
grestore
0.000 setgray
gsave
125.280000 301.338750 translate
0.000000 rotate
0.000000 0.000000 m /l glyphshow
3.993835 0.000000 m /a glyphshow
12.802734 0.000000 m /b glyphshow
21.927490 0.000000 m /e glyphshow
30.771484 0.000000 m /l glyphshow
34.765320 0.000000 m /P glyphshow
43.183838 0.000000 m /r glyphshow
48.718872 0.000000 m /o glyphshow
57.513733 0.000000 m /p glyphshow
grestore
0.750 0.000 0.750 setrgbcolor
gsave
89.28 285.632 m
109.44 285.632 l
stroke
grestore
0.000 setgray
gsave
125.280000 280.591875 translate
0.000000 rotate
0.000000 0.000000 m /i glyphshow
3.993835 0.000000 m /n glyphshow
13.104553 0.000000 m /f glyphshow
18.165283 0.000000 m /o glyphshow
26.960144 0.000000 m /m glyphshow
40.963135 0.000000 m /a glyphshow
49.772034 0.000000 m /p glyphshow
grestore
0.750 0.750 0.000 setrgbcolor
gsave
89.28 264.885 m
109.44 264.885 l
stroke
grestore
0.000 setgray
gsave
125.280000 259.845000 translate
0.000000 rotate
0.000000 0.000000 m /l glyphshow
3.993835 0.000000 m /o glyphshow
12.788696 0.000000 m /u glyphshow
21.899414 0.000000 m /v glyphshow
30.406494 0.000000 m /a glyphshow
39.215393 0.000000 m /n glyphshow
grestore
gsave
89.28 244.138 m
109.44 244.138 l
stroke
grestore
gsave
125.280000 239.098125 translate
0.000000 rotate
0.000000 0.000000 m /a glyphshow
8.808899 0.000000 m /g glyphshow
17.933655 0.000000 m /g glyphshow
27.058411 0.000000 m /C glyphshow
37.095642 0.000000 m /l glyphshow
41.089478 0.000000 m /u glyphshow
50.200195 0.000000 m /s glyphshow
57.689514 0.000000 m /t glyphshow
grestore
0.000 0.000 1.000 setrgbcolor
gsave
89.28 223.391 m
109.44 223.391 l
stroke
grestore
0.000 setgray
gsave
125.280000 218.351250 translate
0.000000 rotate
0.000000 0.000000 m /e glyphshow
8.843994 0.000000 m /i glyphshow
12.837830 0.000000 m /g glyphshow
21.962585 0.000000 m /e glyphshow
30.806580 0.000000 m /n glyphshow
39.917297 0.000000 m /v glyphshow
48.424377 0.000000 m /e glyphshow
57.268372 0.000000 m /c glyphshow
65.171814 0.000000 m /t glyphshow
70.808105 0.000000 m /o glyphshow
79.602966 0.000000 m /r glyphshow
grestore
0.000 0.500 0.000 setrgbcolor
gsave
89.28 202.644 m
109.44 202.644 l
stroke
grestore
0.000 setgray
gsave
125.280000 197.604375 translate
0.000000 rotate
0.000000 0.000000 m /m glyphshow
14.002991 0.000000 m /u glyphshow
23.113708 0.000000 m /l glyphshow
27.107544 0.000000 m /t glyphshow
32.743835 0.000000 m /i glyphshow
36.737671 0.000000 m /l glyphshow
40.731506 0.000000 m /e glyphshow
49.575500 0.000000 m /v glyphshow
58.082581 0.000000 m /e glyphshow
66.926575 0.000000 m /l glyphshow
grestore

end
showpage
