%!PS-Adobe-3.0 EPSF-3.0
%%Title: D:/Zurk/YaDisk/data Mining problems/comunity-detection-diploma/plots/multilevel_agg_3other.eps
%%Creator: matplotlib version 1.4.0, http://matplotlib.org/
%%CreationDate: Sat Apr 11 17:34:06 2015
%%Orientation: portrait
%%BoundingBox: -2 177 614 614
%%EndComments
%%BeginProlog
/mpldict 8 dict def
mpldict begin
/m { moveto } bind def
/l { lineto } bind def
/r { rlineto } bind def
/c { curveto } bind def
/cl { closepath } bind def
/box {
m
1 index 0 r
0 exch r
neg 0 r
cl
} bind def
/clipbox {
box
clip
newpath
} bind def
%!PS-Adobe-3.0 Resource-Font
%%Title: Bitstream Vera Sans
%%Copyright: Copyright (c) 2003 by Bitstream, Inc. All Rights Reserved.
%%Creator: Converted from TrueType to type 3 by PPR
25 dict begin
/_d{bind def}bind def
/_m{moveto}_d
/_l{lineto}_d
/_cl{closepath eofill}_d
/_c{curveto}_d
/_sc{7 -1 roll{setcachedevice}{pop pop pop pop pop pop}ifelse}_d
/_e{exec}_d
/FontName /BitstreamVeraSans-Roman def
/PaintType 0 def
/FontMatrix[.001 0 0 .001 0 0]def
/FontBBox[-183 -236 1287 928]def
/FontType 3 def
/Encoding [ /space /hyphen /period /zero /one /two /three /four /five /six /eight /M /a /b /c /d /e /f /g /i /j /k /l /n /o /p /r /s /t /u /v /w /x /y ] def
/FontInfo 10 dict dup begin
/FamilyName (Bitstream Vera Sans) def
/FullName (Bitstream Vera Sans) def
/Notice (Copyright (c) 2003 by Bitstream, Inc. All Rights Reserved. Bitstream Vera is a trademark of Bitstream, Inc.) def
/Weight (Roman) def
/Version (Release 1.10) def
/ItalicAngle 0.0 def
/isFixedPitch false def
/UnderlinePosition -213 def
/UnderlineThickness 143 def
end readonly def
/CharStrings 34 dict dup begin
/space{318 0 0 0 0 0 _sc
}_d
/hyphen{361 0 49 234 312 314 _sc
49 314 _m
312 314 _l
312 234 _l
49 234 _l
49 314 _l
_cl}_d
/period{318 0 107 0 210 124 _sc
107 124 _m
210 124 _l
210 0 _l
107 0 _l
107 124 _l
_cl}_d
/zero{636 0 66 -13 570 742 _sc
318 664 _m
267 664 229 639 203 589 _c
177 539 165 464 165 364 _c
165 264 177 189 203 139 _c
229 89 267 64 318 64 _c
369 64 407 89 433 139 _c
458 189 471 264 471 364 _c
471 464 458 539 433 589 _c
407 639 369 664 318 664 _c
318 742 _m
399 742 461 709 505 645 _c
548 580 570 486 570 364 _c
570 241 548 147 505 83 _c
461 19 399 -13 318 -13 _c
236 -13 173 19 130 83 _c
87 147 66 241 66 364 _c
66 486 87 580 130 645 _c
173 709 236 742 318 742 _c
_cl}_d
/one{636 0 110 0 544 729 _sc
124 83 _m
285 83 _l
285 639 _l
110 604 _l
110 694 _l
284 729 _l
383 729 _l
383 83 _l
544 83 _l
544 0 _l
124 0 _l
124 83 _l
_cl}_d
/two{{636 0 73 0 536 742 _sc
192 83 _m
536 83 _l
536 0 _l
73 0 _l
73 83 _l
110 121 161 173 226 239 _c
290 304 331 346 348 365 _c
380 400 402 430 414 455 _c
426 479 433 504 433 528 _c
433 566 419 598 392 622 _c
365 646 330 659 286 659 _c
255 659 222 653 188 643 _c
154 632 117 616 78 594 _c
78 694 _l
118 710 155 722 189 730 _c
223 738 255 742 284 742 _c
}_e{359 742 419 723 464 685 _c
509 647 532 597 532 534 _c
532 504 526 475 515 449 _c
504 422 484 390 454 354 _c
446 344 420 317 376 272 _c
332 227 271 164 192 83 _c
_cl}_e}_d
/three{{636 0 76 -13 556 742 _sc
406 393 _m
453 383 490 362 516 330 _c
542 298 556 258 556 212 _c
556 140 531 84 482 45 _c
432 6 362 -13 271 -13 _c
240 -13 208 -10 176 -4 _c
144 1 110 10 76 22 _c
76 117 _l
103 101 133 89 166 81 _c
198 73 232 69 268 69 _c
330 69 377 81 409 105 _c
441 129 458 165 458 212 _c
458 254 443 288 413 312 _c
383 336 341 349 287 349 _c
}_e{202 349 _l
202 430 _l
291 430 _l
339 430 376 439 402 459 _c
428 478 441 506 441 543 _c
441 580 427 609 401 629 _c
374 649 336 659 287 659 _c
260 659 231 656 200 650 _c
169 644 135 635 98 623 _c
98 711 _l
135 721 170 729 203 734 _c
235 739 266 742 296 742 _c
370 742 429 725 473 691 _c
517 657 539 611 539 553 _c
539 513 527 479 504 451 _c
481 423 448 403 406 393 _c
_cl}_e}_d
/four{636 0 49 0 580 729 _sc
378 643 _m
129 254 _l
378 254 _l
378 643 _l
352 729 _m
476 729 _l
476 254 _l
580 254 _l
580 172 _l
476 172 _l
476 0 _l
378 0 _l
378 172 _l
49 172 _l
49 267 _l
352 729 _l
_cl}_d
/five{{636 0 77 -13 549 729 _sc
108 729 _m
495 729 _l
495 646 _l
198 646 _l
198 467 _l
212 472 227 476 241 478 _c
255 480 270 482 284 482 _c
365 482 429 459 477 415 _c
525 370 549 310 549 234 _c
549 155 524 94 475 51 _c
426 8 357 -13 269 -13 _c
238 -13 207 -10 175 -6 _c
143 -1 111 6 77 17 _c
77 116 _l
106 100 136 88 168 80 _c
199 72 232 69 267 69 _c
}_e{323 69 368 83 401 113 _c
433 143 450 183 450 234 _c
450 284 433 324 401 354 _c
368 384 323 399 267 399 _c
241 399 214 396 188 390 _c
162 384 135 375 108 363 _c
108 729 _l
_cl}_e}_d
/six{{636 0 70 -13 573 742 _sc
330 404 _m
286 404 251 388 225 358 _c
199 328 186 286 186 234 _c
186 181 199 139 225 109 _c
251 79 286 64 330 64 _c
374 64 409 79 435 109 _c
461 139 474 181 474 234 _c
474 286 461 328 435 358 _c
409 388 374 404 330 404 _c
526 713 _m
526 623 _l
501 635 476 644 451 650 _c
425 656 400 659 376 659 _c
310 659 260 637 226 593 _c
}_e{192 549 172 482 168 394 _c
187 422 211 444 240 459 _c
269 474 301 482 336 482 _c
409 482 467 459 509 415 _c
551 371 573 310 573 234 _c
573 159 550 99 506 54 _c
462 9 403 -13 330 -13 _c
246 -13 181 19 137 83 _c
92 147 70 241 70 364 _c
70 479 97 571 152 639 _c
206 707 280 742 372 742 _c
396 742 421 739 447 735 _c
472 730 498 723 526 713 _c
_cl}_e}_d
/eight{{636 0 68 -13 568 742 _sc
318 346 _m
271 346 234 333 207 308 _c
180 283 167 249 167 205 _c
167 161 180 126 207 101 _c
234 76 271 64 318 64 _c
364 64 401 76 428 102 _c
455 127 469 161 469 205 _c
469 249 455 283 429 308 _c
402 333 365 346 318 346 _c
219 388 _m
177 398 144 418 120 447 _c
96 476 85 511 85 553 _c
85 611 105 657 147 691 _c
188 725 245 742 318 742 _c
}_e{390 742 447 725 489 691 _c
530 657 551 611 551 553 _c
551 511 539 476 515 447 _c
491 418 459 398 417 388 _c
464 377 501 355 528 323 _c
554 291 568 251 568 205 _c
568 134 546 80 503 43 _c
459 5 398 -13 318 -13 _c
237 -13 175 5 132 43 _c
89 80 68 134 68 205 _c
68 251 81 291 108 323 _c
134 355 171 377 219 388 _c
183 544 _m
183 506 194 476 218 455 _c
}_e{242 434 275 424 318 424 _c
360 424 393 434 417 455 _c
441 476 453 506 453 544 _c
453 582 441 611 417 632 _c
393 653 360 664 318 664 _c
275 664 242 653 218 632 _c
194 611 183 582 183 544 _c
_cl}_e}_d
/M{863 0 98 0 765 729 _sc
98 729 _m
245 729 _l
431 233 _l
618 729 _l
765 729 _l
765 0 _l
669 0 _l
669 640 _l
481 140 _l
382 140 _l
194 640 _l
194 0 _l
98 0 _l
98 729 _l
_cl}_d
/a{{613 0 60 -13 522 560 _sc
343 275 _m
270 275 220 266 192 250 _c
164 233 150 205 150 165 _c
150 133 160 107 181 89 _c
202 70 231 61 267 61 _c
317 61 357 78 387 114 _c
417 149 432 196 432 255 _c
432 275 _l
343 275 _l
522 312 _m
522 0 _l
432 0 _l
432 83 _l
411 49 385 25 355 10 _c
325 -5 287 -13 243 -13 _c
187 -13 142 2 109 33 _c
76 64 60 106 60 159 _c
}_e{60 220 80 266 122 298 _c
163 329 224 345 306 345 _c
432 345 _l
432 354 _l
432 395 418 427 391 450 _c
364 472 326 484 277 484 _c
245 484 215 480 185 472 _c
155 464 127 453 100 439 _c
100 522 _l
132 534 164 544 195 550 _c
226 556 256 560 286 560 _c
365 560 424 539 463 498 _c
502 457 522 395 522 312 _c
_cl}_e}_d
/b{{635 0 91 -13 580 760 _sc
487 273 _m
487 339 473 390 446 428 _c
418 466 381 485 334 485 _c
286 485 249 466 222 428 _c
194 390 181 339 181 273 _c
181 207 194 155 222 117 _c
249 79 286 61 334 61 _c
381 61 418 79 446 117 _c
473 155 487 207 487 273 _c
181 464 _m
199 496 223 520 252 536 _c
281 552 316 560 356 560 _c
422 560 476 533 518 481 _c
559 428 580 359 580 273 _c
}_e{580 187 559 117 518 65 _c
476 13 422 -13 356 -13 _c
316 -13 281 -5 252 10 _c
223 25 199 49 181 82 _c
181 0 _l
91 0 _l
91 760 _l
181 760 _l
181 464 _l
_cl}_e}_d
/c{{550 0 55 -13 488 560 _sc
488 526 _m
488 442 _l
462 456 437 466 411 473 _c
385 480 360 484 334 484 _c
276 484 230 465 198 428 _c
166 391 150 339 150 273 _c
150 206 166 154 198 117 _c
230 80 276 62 334 62 _c
360 62 385 65 411 72 _c
437 79 462 90 488 104 _c
488 21 _l
462 9 436 0 410 -5 _c
383 -10 354 -13 324 -13 _c
242 -13 176 12 128 64 _c
}_e{79 115 55 185 55 273 _c
55 362 79 432 128 483 _c
177 534 244 560 330 560 _c
358 560 385 557 411 551 _c
437 545 463 537 488 526 _c
_cl}_e}_d
/d{{635 0 55 -13 544 760 _sc
454 464 _m
454 760 _l
544 760 _l
544 0 _l
454 0 _l
454 82 _l
435 49 411 25 382 10 _c
353 -5 319 -13 279 -13 _c
213 -13 159 13 117 65 _c
75 117 55 187 55 273 _c
55 359 75 428 117 481 _c
159 533 213 560 279 560 _c
319 560 353 552 382 536 _c
411 520 435 496 454 464 _c
148 273 _m
148 207 161 155 188 117 _c
215 79 253 61 301 61 _c
}_e{348 61 385 79 413 117 _c
440 155 454 207 454 273 _c
454 339 440 390 413 428 _c
385 466 348 485 301 485 _c
253 485 215 466 188 428 _c
161 390 148 339 148 273 _c
_cl}_e}_d
/e{{615 0 55 -13 562 560 _sc
562 296 _m
562 252 _l
149 252 _l
153 190 171 142 205 110 _c
238 78 284 62 344 62 _c
378 62 412 66 444 74 _c
476 82 509 95 541 113 _c
541 28 _l
509 14 476 3 442 -3 _c
408 -9 373 -13 339 -13 _c
251 -13 182 12 131 62 _c
80 112 55 181 55 268 _c
55 357 79 428 127 481 _c
175 533 241 560 323 560 _c
397 560 455 536 498 489 _c
}_e{540 441 562 377 562 296 _c
472 322 _m
471 371 457 410 431 440 _c
404 469 368 484 324 484 _c
274 484 234 469 204 441 _c
174 413 156 373 152 322 _c
472 322 _l
_cl}_e}_d
/f{352 0 23 0 371 760 _sc
371 760 _m
371 685 _l
285 685 _l
253 685 230 678 218 665 _c
205 652 199 629 199 595 _c
199 547 _l
347 547 _l
347 477 _l
199 477 _l
199 0 _l
109 0 _l
109 477 _l
23 477 _l
23 547 _l
109 547 _l
109 585 _l
109 645 123 690 151 718 _c
179 746 224 760 286 760 _c
371 760 _l
_cl}_d
/g{{635 0 55 -207 544 560 _sc
454 280 _m
454 344 440 395 414 431 _c
387 467 349 485 301 485 _c
253 485 215 467 188 431 _c
161 395 148 344 148 280 _c
148 215 161 165 188 129 _c
215 93 253 75 301 75 _c
349 75 387 93 414 129 _c
440 165 454 215 454 280 _c
544 68 _m
544 -24 523 -93 482 -139 _c
440 -184 377 -207 292 -207 _c
260 -207 231 -204 203 -200 _c
175 -195 147 -188 121 -178 _c
}_e{121 -91 _l
147 -105 173 -115 199 -122 _c
225 -129 251 -133 278 -133 _c
336 -133 380 -117 410 -87 _c
439 -56 454 -10 454 52 _c
454 96 _l
435 64 411 40 382 24 _c
353 8 319 0 279 0 _c
211 0 157 25 116 76 _c
75 127 55 195 55 280 _c
55 364 75 432 116 483 _c
157 534 211 560 279 560 _c
319 560 353 552 382 536 _c
411 520 435 496 454 464 _c
454 547 _l
544 547 _l
}_e{544 68 _l
_cl}_e}_d
/i{278 0 94 0 184 760 _sc
94 547 _m
184 547 _l
184 0 _l
94 0 _l
94 547 _l
94 760 _m
184 760 _l
184 646 _l
94 646 _l
94 760 _l
_cl}_d
/j{278 0 -17 -207 184 760 _sc
94 547 _m
184 547 _l
184 -9 _l
184 -78 170 -128 144 -160 _c
117 -191 74 -207 16 -207 _c
-17 -207 _l
-17 -131 _l
6 -131 _l
40 -131 63 -123 75 -107 _c
87 -91 94 -58 94 -9 _c
94 547 _l
94 760 _m
184 760 _l
184 646 _l
94 646 _l
94 760 _l
_cl}_d
/k{579 0 91 0 576 760 _sc
91 760 _m
181 760 _l
181 311 _l
449 547 _l
564 547 _l
274 291 _l
576 0 _l
459 0 _l
181 267 _l
181 0 _l
91 0 _l
91 760 _l
_cl}_d
/l{278 0 94 0 184 760 _sc
94 760 _m
184 760 _l
184 0 _l
94 0 _l
94 760 _l
_cl}_d
/n{634 0 91 0 549 560 _sc
549 330 _m
549 0 _l
459 0 _l
459 327 _l
459 379 448 417 428 443 _c
408 469 378 482 338 482 _c
289 482 251 466 223 435 _c
195 404 181 362 181 309 _c
181 0 _l
91 0 _l
91 547 _l
181 547 _l
181 462 _l
202 494 227 519 257 535 _c
286 551 320 560 358 560 _c
420 560 468 540 500 501 _c
532 462 549 405 549 330 _c
_cl}_d
/o{612 0 55 -13 557 560 _sc
306 484 _m
258 484 220 465 192 427 _c
164 389 150 338 150 273 _c
150 207 163 156 191 118 _c
219 80 257 62 306 62 _c
354 62 392 80 420 118 _c
448 156 462 207 462 273 _c
462 337 448 389 420 427 _c
392 465 354 484 306 484 _c
306 560 _m
384 560 445 534 490 484 _c
534 433 557 363 557 273 _c
557 183 534 113 490 63 _c
445 12 384 -13 306 -13 _c
227 -13 165 12 121 63 _c
77 113 55 183 55 273 _c
55 363 77 433 121 484 _c
165 534 227 560 306 560 _c
_cl}_d
/p{{635 0 91 -207 580 560 _sc
181 82 _m
181 -207 _l
91 -207 _l
91 547 _l
181 547 _l
181 464 _l
199 496 223 520 252 536 _c
281 552 316 560 356 560 _c
422 560 476 533 518 481 _c
559 428 580 359 580 273 _c
580 187 559 117 518 65 _c
476 13 422 -13 356 -13 _c
316 -13 281 -5 252 10 _c
223 25 199 49 181 82 _c
487 273 _m
487 339 473 390 446 428 _c
418 466 381 485 334 485 _c
}_e{286 485 249 466 222 428 _c
194 390 181 339 181 273 _c
181 207 194 155 222 117 _c
249 79 286 61 334 61 _c
381 61 418 79 446 117 _c
473 155 487 207 487 273 _c
_cl}_e}_d
/r{411 0 91 0 411 560 _sc
411 463 _m
401 469 390 473 378 476 _c
366 478 353 480 339 480 _c
288 480 249 463 222 430 _c
194 397 181 350 181 288 _c
181 0 _l
91 0 _l
91 547 _l
181 547 _l
181 462 _l
199 495 224 520 254 536 _c
284 552 321 560 365 560 _c
371 560 378 559 386 559 _c
393 558 401 557 411 555 _c
411 463 _l
_cl}_d
/s{{521 0 54 -13 472 560 _sc
443 531 _m
443 446 _l
417 458 391 468 364 475 _c
336 481 308 485 279 485 _c
234 485 200 478 178 464 _c
156 450 145 430 145 403 _c
145 382 153 366 169 354 _c
185 342 217 330 265 320 _c
296 313 _l
360 299 405 279 432 255 _c
458 230 472 195 472 151 _c
472 100 452 60 412 31 _c
372 1 316 -13 246 -13 _c
216 -13 186 -10 154 -5 _c
}_e{122 0 89 8 54 20 _c
54 113 _l
87 95 120 82 152 74 _c
184 65 216 61 248 61 _c
290 61 323 68 346 82 _c
368 96 380 117 380 144 _c
380 168 371 187 355 200 _c
339 213 303 226 247 238 _c
216 245 _l
160 257 119 275 95 299 _c
70 323 58 356 58 399 _c
58 450 76 490 112 518 _c
148 546 200 560 268 560 _c
301 560 332 557 362 552 _c
391 547 418 540 443 531 _c
}_e{_cl}_e}_d
/t{392 0 27 0 368 702 _sc
183 702 _m
183 547 _l
368 547 _l
368 477 _l
183 477 _l
183 180 _l
183 135 189 106 201 94 _c
213 81 238 75 276 75 _c
368 75 _l
368 0 _l
276 0 _l
206 0 158 13 132 39 _c
106 65 93 112 93 180 _c
93 477 _l
27 477 _l
27 547 _l
93 547 _l
93 702 _l
183 702 _l
_cl}_d
/u{634 0 85 -13 543 547 _sc
85 216 _m
85 547 _l
175 547 _l
175 219 _l
175 167 185 129 205 103 _c
225 77 255 64 296 64 _c
344 64 383 79 411 110 _c
439 141 453 183 453 237 _c
453 547 _l
543 547 _l
543 0 _l
453 0 _l
453 84 _l
431 50 405 26 377 10 _c
348 -5 315 -13 277 -13 _c
214 -13 166 6 134 45 _c
101 83 85 140 85 216 _c
_cl}_d
/v{592 0 30 0 562 547 _sc
30 547 _m
125 547 _l
296 88 _l
467 547 _l
562 547 _l
357 0 _l
235 0 _l
30 547 _l
_cl}_d
/w{818 0 42 0 776 547 _sc
42 547 _m
132 547 _l
244 120 _l
356 547 _l
462 547 _l
574 120 _l
686 547 _l
776 547 _l
633 0 _l
527 0 _l
409 448 _l
291 0 _l
185 0 _l
42 547 _l
_cl}_d
/x{592 0 29 0 559 547 _sc
549 547 _m
351 281 _l
559 0 _l
453 0 _l
294 215 _l
135 0 _l
29 0 _l
241 286 _l
47 547 _l
153 547 _l
298 352 _l
443 547 _l
549 547 _l
_cl}_d
/y{592 0 30 -207 562 547 _sc
322 -50 _m
296 -114 271 -157 247 -177 _c
223 -197 191 -207 151 -207 _c
79 -207 _l
79 -132 _l
132 -132 _l
156 -132 175 -126 189 -114 _c
203 -102 218 -75 235 -31 _c
251 9 _l
30 547 _l
125 547 _l
296 119 _l
467 547 _l
562 547 _l
322 -50 _l
_cl}_d
end readonly def

/BuildGlyph
 {exch begin
 CharStrings exch
 2 copy known not{pop /.notdef}if
 true 3 1 roll get exec
 end}_d

/BuildChar {
 1 index /Encoding get exch get
 1 index /BuildGlyph get exec
}_d

FontName currentdict end definefont pop
end
%%EndProlog
mpldict begin
-2.7 177.3 translate
617.4 437.4 0 0 clipbox
gsave
0 0 m
617.4 0 l
617.4 437.4 l
0 437.4 l
cl
1.000 setgray
fill
grestore
gsave
77.175 43.74 m
555.66 43.74 l
555.66 393.66 l
77.175 393.66 l
cl
1.000 setgray
fill
grestore
1.000 setlinewidth
1 setlinejoin
2 setlinecap
[] 0 setdash
1.000 0.000 0.000 setrgbcolor
gsave
478.5 349.9 77.17 43.74 clipbox
93.1245 43.74 m
106.416 59.292 l
119.707 83.3976 l
132.998 122.278 l
146.289 140.94 l
159.581 136.274 l
172.872 163.49 l
186.163 188.374 l
199.454 184.486 l
212.746 179.042 l
226.037 196.15 l
239.328 233.474 l
252.619 237.362 l
265.911 238.14 l
279.202 284.796 l
292.493 255.247 l
305.784 261.468 l
319.076 275.465 l
332.367 266.134 l
345.658 282.463 l
358.949 278.575 l
372.241 298.015 l
385.532 298.015 l
398.823 287.906 l
412.114 303.458 l
425.406 297.238 l
438.697 315.122 l
451.988 322.898 l
465.279 313.567 l
478.571 319.788 l
491.862 329.119 l
505.153 326.786 l
518.444 321.343 l
531.736 326.786 l
stroke
grestore
0.498 1.000 0.000 setrgbcolor
gsave
478.5 349.9 77.17 43.74 clipbox
93.1245 43.74 m
106.416 43.74 l
119.707 43.74 l
132.998 43.74 l
146.289 46.8504 l
159.581 48.4056 l
172.872 51.516 l
186.163 65.5128 l
199.454 73.2888 l
212.746 88.8408 l
226.037 117.612 l
239.328 119.945 l
252.619 139.385 l
265.911 150.271 l
279.202 208.591 l
292.493 203.148 l
305.784 210.146 l
319.076 224.921 l
332.367 232.697 l
345.658 230.364 l
358.949 232.697 l
372.241 295.682 l
385.532 266.911 l
398.823 287.129 l
412.114 308.124 l
425.406 283.241 l
438.697 286.351 l
451.988 310.457 l
465.279 315.9 l
478.571 306.569 l
491.862 310.457 l
505.153 332.23 l
518.444 312.012 l
531.736 299.57 l
stroke
grestore
0.000 1.000 1.000 setrgbcolor
gsave
478.5 349.9 77.17 43.74 clipbox
93.1245 43.74 m
106.416 43.74 l
119.707 43.74 l
132.998 43.74 l
146.289 45.2952 l
159.581 48.4056 l
172.872 59.292 l
186.163 68.6232 l
199.454 77.9544 l
212.746 95.0616 l
226.037 136.274 l
239.328 146.383 l
252.619 167.378 l
265.911 200.815 l
279.202 235.807 l
292.493 222.588 l
305.784 238.14 l
319.076 240.473 l
332.367 254.47 l
345.658 266.134 l
358.949 264.578 l
372.241 294.905 l
385.532 255.247 l
398.823 294.905 l
412.114 275.465 l
425.406 302.681 l
438.697 294.127 l
451.988 290.239 l
465.279 301.903 l
478.571 312.012 l
491.862 291.794 l
505.153 333.007 l
518.444 293.35 l
531.736 330.674 l
stroke
grestore
0.498 0.000 1.000 setrgbcolor
gsave
478.5 349.9 77.17 43.74 clipbox
93.1245 48.4056 m
106.416 134.719 l
119.707 141.718 l
132.998 130.831 l
146.289 163.49 l
159.581 170.489 l
172.872 182.93 l
186.163 151.049 l
199.454 167.378 l
212.746 169.711 l
226.037 182.153 l
239.328 204.703 l
252.619 224.921 l
265.911 196.927 l
279.202 238.14 l
292.493 218.7 l
305.784 238.918 l
319.076 267.689 l
332.367 281.686 l
345.658 282.463 l
358.949 277.02 l
372.241 272.354 l
385.532 273.132 l
398.823 294.127 l
412.114 309.679 l
425.406 312.79 l
438.697 317.455 l
451.988 347.004 l
465.279 358.668 l
478.571 316.678 l
491.862 351.67 l
505.153 318.233 l
518.444 289.462 l
531.736 315.9 l
stroke
grestore
0 setlinejoin
0.000 setgray
gsave
77.175 393.66 m
555.66 393.66 l
stroke
grestore
gsave
555.66 43.74 m
555.66 393.66 l
stroke
grestore
gsave
77.175 43.74 m
555.66 43.74 l
stroke
grestore
gsave
77.175 43.74 m
77.175 393.66 l
stroke
grestore
0.500 setlinewidth
1 setlinejoin
0 setlinecap
[1 3] 0 setdash
gsave
478.5 349.9 77.17 43.74 clipbox
77.175 43.74 m
77.175 393.66 l
stroke
grestore
[] 0 setdash
gsave
/o {
gsave
newpath
translate
0.5 setlinewidth
1 setlinejoin
0 setlinecap
0 0 m
0 4 l
gsave
0.000 setgray
fill
grestore
stroke
grestore
} bind def
77.175 43.74 o
grestore
gsave
/o {
gsave
newpath
translate
0.5 setlinewidth
1 setlinejoin
0 setlinecap
0 0 m
0 -4 l
gsave
0.000 setgray
fill
grestore
stroke
grestore
} bind def
77.175 393.66 o
grestore
/BitstreamVeraSans-Roman findfont
12.000 scalefont
setfont
gsave
64.604687 30.615000 translate
0.000000 rotate
0.000000 0.000000 m /zero glyphshow
7.634766 0.000000 m /period glyphshow
11.449219 0.000000 m /zero glyphshow
19.083984 0.000000 m /zero glyphshow
grestore
[1 3] 0 setdash
gsave
478.5 349.9 77.17 43.74 clipbox
130.34 43.74 m
130.34 393.66 l
stroke
grestore
[] 0 setdash
gsave
/o {
gsave
newpath
translate
0.5 setlinewidth
1 setlinejoin
0 setlinecap
0 0 m
0 4 l
gsave
0.000 setgray
fill
grestore
stroke
grestore
} bind def
130.34 43.74 o
grestore
gsave
/o {
gsave
newpath
translate
0.5 setlinewidth
1 setlinejoin
0 setlinecap
0 0 m
0 -4 l
gsave
0.000 setgray
fill
grestore
stroke
grestore
} bind def
130.34 393.66 o
grestore
gsave
117.972812 30.615000 translate
0.000000 rotate
0.000000 0.000000 m /zero glyphshow
7.634766 0.000000 m /period glyphshow
11.449219 0.000000 m /zero glyphshow
19.083984 0.000000 m /two glyphshow
grestore
[1 3] 0 setdash
gsave
478.5 349.9 77.17 43.74 clipbox
183.505 43.74 m
183.505 393.66 l
stroke
grestore
[] 0 setdash
gsave
/o {
gsave
newpath
translate
0.5 setlinewidth
1 setlinejoin
0 setlinecap
0 0 m
0 4 l
gsave
0.000 setgray
fill
grestore
stroke
grestore
} bind def
183.505 43.74 o
grestore
gsave
/o {
gsave
newpath
translate
0.5 setlinewidth
1 setlinejoin
0 setlinecap
0 0 m
0 -4 l
gsave
0.000 setgray
fill
grestore
stroke
grestore
} bind def
183.505 393.66 o
grestore
gsave
170.872187 30.615000 translate
0.000000 rotate
0.000000 0.000000 m /zero glyphshow
7.634766 0.000000 m /period glyphshow
11.449219 0.000000 m /zero glyphshow
19.083984 0.000000 m /four glyphshow
grestore
[1 3] 0 setdash
gsave
478.5 349.9 77.17 43.74 clipbox
236.67 43.74 m
236.67 393.66 l
stroke
grestore
[] 0 setdash
gsave
/o {
gsave
newpath
translate
0.5 setlinewidth
1 setlinejoin
0 setlinecap
0 0 m
0 4 l
gsave
0.000 setgray
fill
grestore
stroke
grestore
} bind def
236.67 43.74 o
grestore
gsave
/o {
gsave
newpath
translate
0.5 setlinewidth
1 setlinejoin
0 setlinecap
0 0 m
0 -4 l
gsave
0.000 setgray
fill
grestore
stroke
grestore
} bind def
236.67 393.66 o
grestore
gsave
224.084062 30.615000 translate
0.000000 rotate
0.000000 0.000000 m /zero glyphshow
7.634766 0.000000 m /period glyphshow
11.449219 0.000000 m /zero glyphshow
19.083984 0.000000 m /six glyphshow
grestore
[1 3] 0 setdash
gsave
478.5 349.9 77.17 43.74 clipbox
289.835 43.74 m
289.835 393.66 l
stroke
grestore
[] 0 setdash
gsave
/o {
gsave
newpath
translate
0.5 setlinewidth
1 setlinejoin
0 setlinecap
0 0 m
0 4 l
gsave
0.000 setgray
fill
grestore
stroke
grestore
} bind def
289.835 43.74 o
grestore
gsave
/o {
gsave
newpath
translate
0.5 setlinewidth
1 setlinejoin
0 setlinecap
0 0 m
0 -4 l
gsave
0.000 setgray
fill
grestore
stroke
grestore
} bind def
289.835 393.66 o
grestore
gsave
277.280312 30.615000 translate
0.000000 rotate
0.000000 0.000000 m /zero glyphshow
7.634766 0.000000 m /period glyphshow
11.449219 0.000000 m /zero glyphshow
19.083984 0.000000 m /eight glyphshow
grestore
[1 3] 0 setdash
gsave
478.5 349.9 77.17 43.74 clipbox
343 43.74 m
343 393.66 l
stroke
grestore
[] 0 setdash
gsave
/o {
gsave
newpath
translate
0.5 setlinewidth
1 setlinejoin
0 setlinecap
0 0 m
0 4 l
gsave
0.000 setgray
fill
grestore
stroke
grestore
} bind def
343 43.74 o
grestore
gsave
/o {
gsave
newpath
translate
0.5 setlinewidth
1 setlinejoin
0 setlinecap
0 0 m
0 -4 l
gsave
0.000 setgray
fill
grestore
stroke
grestore
} bind def
343 393.66 o
grestore
gsave
330.429688 30.615000 translate
0.000000 rotate
0.000000 0.000000 m /zero glyphshow
7.634766 0.000000 m /period glyphshow
11.449219 0.000000 m /one glyphshow
19.083984 0.000000 m /zero glyphshow
grestore
[1 3] 0 setdash
gsave
478.5 349.9 77.17 43.74 clipbox
396.165 43.74 m
396.165 393.66 l
stroke
grestore
[] 0 setdash
gsave
/o {
gsave
newpath
translate
0.5 setlinewidth
1 setlinejoin
0 setlinecap
0 0 m
0 4 l
gsave
0.000 setgray
fill
grestore
stroke
grestore
} bind def
396.165 43.74 o
grestore
gsave
/o {
gsave
newpath
translate
0.5 setlinewidth
1 setlinejoin
0 setlinecap
0 0 m
0 -4 l
gsave
0.000 setgray
fill
grestore
stroke
grestore
} bind def
396.165 393.66 o
grestore
gsave
383.797812 30.615000 translate
0.000000 rotate
0.000000 0.000000 m /zero glyphshow
7.634766 0.000000 m /period glyphshow
11.449219 0.000000 m /one glyphshow
19.083984 0.000000 m /two glyphshow
grestore
[1 3] 0 setdash
gsave
478.5 349.9 77.17 43.74 clipbox
449.33 43.74 m
449.33 393.66 l
stroke
grestore
[] 0 setdash
gsave
/o {
gsave
newpath
translate
0.5 setlinewidth
1 setlinejoin
0 setlinecap
0 0 m
0 4 l
gsave
0.000 setgray
fill
grestore
stroke
grestore
} bind def
449.33 43.74 o
grestore
gsave
/o {
gsave
newpath
translate
0.5 setlinewidth
1 setlinejoin
0 setlinecap
0 0 m
0 -4 l
gsave
0.000 setgray
fill
grestore
stroke
grestore
} bind def
449.33 393.66 o
grestore
gsave
436.697187 30.615000 translate
0.000000 rotate
0.000000 0.000000 m /zero glyphshow
7.634766 0.000000 m /period glyphshow
11.449219 0.000000 m /one glyphshow
19.083984 0.000000 m /four glyphshow
grestore
[1 3] 0 setdash
gsave
478.5 349.9 77.17 43.74 clipbox
502.495 43.74 m
502.495 393.66 l
stroke
grestore
[] 0 setdash
gsave
/o {
gsave
newpath
translate
0.5 setlinewidth
1 setlinejoin
0 setlinecap
0 0 m
0 4 l
gsave
0.000 setgray
fill
grestore
stroke
grestore
} bind def
502.495 43.74 o
grestore
gsave
/o {
gsave
newpath
translate
0.5 setlinewidth
1 setlinejoin
0 setlinecap
0 0 m
0 -4 l
gsave
0.000 setgray
fill
grestore
stroke
grestore
} bind def
502.495 393.66 o
grestore
gsave
489.909062 30.615000 translate
0.000000 rotate
0.000000 0.000000 m /zero glyphshow
7.634766 0.000000 m /period glyphshow
11.449219 0.000000 m /one glyphshow
19.083984 0.000000 m /six glyphshow
grestore
[1 3] 0 setdash
gsave
478.5 349.9 77.17 43.74 clipbox
555.66 43.74 m
555.66 393.66 l
stroke
grestore
[] 0 setdash
gsave
/o {
gsave
newpath
translate
0.5 setlinewidth
1 setlinejoin
0 setlinecap
0 0 m
0 4 l
gsave
0.000 setgray
fill
grestore
stroke
grestore
} bind def
555.66 43.74 o
grestore
gsave
/o {
gsave
newpath
translate
0.5 setlinewidth
1 setlinejoin
0 setlinecap
0 0 m
0 -4 l
gsave
0.000 setgray
fill
grestore
stroke
grestore
} bind def
555.66 393.66 o
grestore
gsave
543.105312 30.615000 translate
0.000000 rotate
0.000000 0.000000 m /zero glyphshow
7.634766 0.000000 m /period glyphshow
11.449219 0.000000 m /one glyphshow
19.083984 0.000000 m /eight glyphshow
grestore
gsave
245.480000 13.990000 translate
0.000000 rotate
0.000000 0.000000 m /e glyphshow
7.132812 0.000000 m /x glyphshow
14.234375 0.000000 m /t glyphshow
18.939453 0.000000 m /e glyphshow
26.322266 0.000000 m /r glyphshow
31.005859 0.000000 m /n glyphshow
38.611328 0.000000 m /a glyphshow
45.964844 0.000000 m /l glyphshow
49.298828 0.000000 m /space glyphshow
53.113281 0.000000 m /l glyphshow
56.447266 0.000000 m /i glyphshow
59.781250 0.000000 m /n glyphshow
67.386719 0.000000 m /k glyphshow
74.335938 0.000000 m /space glyphshow
78.150391 0.000000 m /p glyphshow
85.767578 0.000000 m /r glyphshow
90.451172 0.000000 m /o glyphshow
97.792969 0.000000 m /b glyphshow
105.410156 0.000000 m /a glyphshow
112.763672 0.000000 m /b glyphshow
120.380859 0.000000 m /i glyphshow
123.714844 0.000000 m /l glyphshow
127.048828 0.000000 m /i glyphshow
130.382812 0.000000 m /t glyphshow
135.087891 0.000000 m /y glyphshow
grestore
[1 3] 0 setdash
gsave
478.5 349.9 77.17 43.74 clipbox
77.175 43.74 m
555.66 43.74 l
stroke
grestore
[] 0 setdash
gsave
/o {
gsave
newpath
translate
0.5 setlinewidth
1 setlinejoin
0 setlinecap
0 0 m
4 0 l
gsave
0.000 setgray
fill
grestore
stroke
grestore
} bind def
77.175 43.74 o
grestore
gsave
/o {
gsave
newpath
translate
0.5 setlinewidth
1 setlinejoin
0 setlinecap
0 0 m
-4 0 l
gsave
0.000 setgray
fill
grestore
stroke
grestore
} bind def
555.66 43.74 o
grestore
gsave
67.128125 40.427500 translate
0.000000 rotate
0.000000 0.000000 m /zero glyphshow
grestore
[1 3] 0 setdash
gsave
478.5 349.9 77.17 43.74 clipbox
77.175 82.62 m
555.66 82.62 l
stroke
grestore
[] 0 setdash
gsave
/o {
gsave
newpath
translate
0.5 setlinewidth
1 setlinejoin
0 setlinecap
0 0 m
4 0 l
gsave
0.000 setgray
fill
grestore
stroke
grestore
} bind def
77.175 82.62 o
grestore
gsave
/o {
gsave
newpath
translate
0.5 setlinewidth
1 setlinejoin
0 setlinecap
0 0 m
-4 0 l
gsave
0.000 setgray
fill
grestore
stroke
grestore
} bind def
555.66 82.62 o
grestore
gsave
59.612500 79.307500 translate
0.000000 rotate
0.000000 0.000000 m /five glyphshow
7.634766 0.000000 m /zero glyphshow
grestore
[1 3] 0 setdash
gsave
478.5 349.9 77.17 43.74 clipbox
77.175 121.5 m
555.66 121.5 l
stroke
grestore
[] 0 setdash
gsave
/o {
gsave
newpath
translate
0.5 setlinewidth
1 setlinejoin
0 setlinecap
0 0 m
4 0 l
gsave
0.000 setgray
fill
grestore
stroke
grestore
} bind def
77.175 121.5 o
grestore
gsave
/o {
gsave
newpath
translate
0.5 setlinewidth
1 setlinejoin
0 setlinecap
0 0 m
-4 0 l
gsave
0.000 setgray
fill
grestore
stroke
grestore
} bind def
555.66 121.5 o
grestore
gsave
52.362500 118.187500 translate
0.000000 rotate
0.000000 0.000000 m /one glyphshow
7.634766 0.000000 m /zero glyphshow
15.269531 0.000000 m /zero glyphshow
grestore
[1 3] 0 setdash
gsave
478.5 349.9 77.17 43.74 clipbox
77.175 160.38 m
555.66 160.38 l
stroke
grestore
[] 0 setdash
gsave
/o {
gsave
newpath
translate
0.5 setlinewidth
1 setlinejoin
0 setlinecap
0 0 m
4 0 l
gsave
0.000 setgray
fill
grestore
stroke
grestore
} bind def
77.175 160.38 o
grestore
gsave
/o {
gsave
newpath
translate
0.5 setlinewidth
1 setlinejoin
0 setlinecap
0 0 m
-4 0 l
gsave
0.000 setgray
fill
grestore
stroke
grestore
} bind def
555.66 160.38 o
grestore
gsave
52.362500 157.067500 translate
0.000000 rotate
0.000000 0.000000 m /one glyphshow
7.634766 0.000000 m /five glyphshow
15.269531 0.000000 m /zero glyphshow
grestore
[1 3] 0 setdash
gsave
478.5 349.9 77.17 43.74 clipbox
77.175 199.26 m
555.66 199.26 l
stroke
grestore
[] 0 setdash
gsave
/o {
gsave
newpath
translate
0.5 setlinewidth
1 setlinejoin
0 setlinecap
0 0 m
4 0 l
gsave
0.000 setgray
fill
grestore
stroke
grestore
} bind def
77.175 199.26 o
grestore
gsave
/o {
gsave
newpath
translate
0.5 setlinewidth
1 setlinejoin
0 setlinecap
0 0 m
-4 0 l
gsave
0.000 setgray
fill
grestore
stroke
grestore
} bind def
555.66 199.26 o
grestore
gsave
51.925000 195.947500 translate
0.000000 rotate
0.000000 0.000000 m /two glyphshow
7.634766 0.000000 m /zero glyphshow
15.269531 0.000000 m /zero glyphshow
grestore
[1 3] 0 setdash
gsave
478.5 349.9 77.17 43.74 clipbox
77.175 238.14 m
555.66 238.14 l
stroke
grestore
[] 0 setdash
gsave
/o {
gsave
newpath
translate
0.5 setlinewidth
1 setlinejoin
0 setlinecap
0 0 m
4 0 l
gsave
0.000 setgray
fill
grestore
stroke
grestore
} bind def
77.175 238.14 o
grestore
gsave
/o {
gsave
newpath
translate
0.5 setlinewidth
1 setlinejoin
0 setlinecap
0 0 m
-4 0 l
gsave
0.000 setgray
fill
grestore
stroke
grestore
} bind def
555.66 238.14 o
grestore
gsave
51.925000 234.827500 translate
0.000000 rotate
0.000000 0.000000 m /two glyphshow
7.634766 0.000000 m /five glyphshow
15.269531 0.000000 m /zero glyphshow
grestore
[1 3] 0 setdash
gsave
478.5 349.9 77.17 43.74 clipbox
77.175 277.02 m
555.66 277.02 l
stroke
grestore
[] 0 setdash
gsave
/o {
gsave
newpath
translate
0.5 setlinewidth
1 setlinejoin
0 setlinecap
0 0 m
4 0 l
gsave
0.000 setgray
fill
grestore
stroke
grestore
} bind def
77.175 277.02 o
grestore
gsave
/o {
gsave
newpath
translate
0.5 setlinewidth
1 setlinejoin
0 setlinecap
0 0 m
-4 0 l
gsave
0.000 setgray
fill
grestore
stroke
grestore
} bind def
555.66 277.02 o
grestore
gsave
51.971875 273.707500 translate
0.000000 rotate
0.000000 0.000000 m /three glyphshow
7.634766 0.000000 m /zero glyphshow
15.269531 0.000000 m /zero glyphshow
grestore
[1 3] 0 setdash
gsave
478.5 349.9 77.17 43.74 clipbox
77.175 315.9 m
555.66 315.9 l
stroke
grestore
[] 0 setdash
gsave
/o {
gsave
newpath
translate
0.5 setlinewidth
1 setlinejoin
0 setlinecap
0 0 m
4 0 l
gsave
0.000 setgray
fill
grestore
stroke
grestore
} bind def
77.175 315.9 o
grestore
gsave
/o {
gsave
newpath
translate
0.5 setlinewidth
1 setlinejoin
0 setlinecap
0 0 m
-4 0 l
gsave
0.000 setgray
fill
grestore
stroke
grestore
} bind def
555.66 315.9 o
grestore
gsave
51.971875 312.587500 translate
0.000000 rotate
0.000000 0.000000 m /three glyphshow
7.634766 0.000000 m /five glyphshow
15.269531 0.000000 m /zero glyphshow
grestore
[1 3] 0 setdash
gsave
478.5 349.9 77.17 43.74 clipbox
77.175 354.78 m
555.66 354.78 l
stroke
grestore
[] 0 setdash
gsave
/o {
gsave
newpath
translate
0.5 setlinewidth
1 setlinejoin
0 setlinecap
0 0 m
4 0 l
gsave
0.000 setgray
fill
grestore
stroke
grestore
} bind def
77.175 354.78 o
grestore
gsave
/o {
gsave
newpath
translate
0.5 setlinewidth
1 setlinejoin
0 setlinecap
0 0 m
-4 0 l
gsave
0.000 setgray
fill
grestore
stroke
grestore
} bind def
555.66 354.78 o
grestore
gsave
51.643750 351.467500 translate
0.000000 rotate
0.000000 0.000000 m /four glyphshow
7.634766 0.000000 m /zero glyphshow
15.269531 0.000000 m /zero glyphshow
grestore
[1 3] 0 setdash
gsave
478.5 349.9 77.17 43.74 clipbox
77.175 393.66 m
555.66 393.66 l
stroke
grestore
[] 0 setdash
gsave
/o {
gsave
newpath
translate
0.5 setlinewidth
1 setlinejoin
0 setlinecap
0 0 m
4 0 l
gsave
0.000 setgray
fill
grestore
stroke
grestore
} bind def
77.175 393.66 o
grestore
gsave
/o {
gsave
newpath
translate
0.5 setlinewidth
1 setlinejoin
0 setlinecap
0 0 m
-4 0 l
gsave
0.000 setgray
fill
grestore
stroke
grestore
} bind def
555.66 393.66 o
grestore
gsave
51.643750 390.347500 translate
0.000000 rotate
0.000000 0.000000 m /four glyphshow
7.634766 0.000000 m /five glyphshow
15.269531 0.000000 m /zero glyphshow
grestore
gsave
44.143750 166.098437 translate
90.000000 rotate
0.000000 0.000000 m /s glyphshow
6.251953 0.000000 m /p glyphshow
13.869141 0.000000 m /l glyphshow
17.203125 0.000000 m /i glyphshow
20.537109 0.000000 m /t glyphshow
25.242188 0.000000 m /hyphen glyphshow
29.572266 0.000000 m /j glyphshow
32.906250 0.000000 m /o glyphshow
40.248047 0.000000 m /i glyphshow
43.582031 0.000000 m /n glyphshow
51.187500 0.000000 m /space glyphshow
55.001953 0.000000 m /d glyphshow
62.619141 0.000000 m /i glyphshow
65.953125 0.000000 m /s glyphshow
72.205078 0.000000 m /t glyphshow
76.910156 0.000000 m /a glyphshow
84.263672 0.000000 m /n glyphshow
91.869141 0.000000 m /c glyphshow
98.466797 0.000000 m /e glyphshow
grestore
1.000 setlinewidth
0 setlinejoin
gsave
81.675 333.585 m
173.028 333.585 l
173.028 389.16 l
81.675 389.16 l
cl
gsave
1.000 setgray
fill
grestore
stroke
grestore
1 setlinejoin
2 setlinecap
1.000 0.000 0.000 setrgbcolor
gsave
87.975 381.866 m
100.575 381.866 l
stroke
grestore
0.000 setgray
/BitstreamVeraSans-Roman findfont
9.000 scalefont
setfont
gsave
110.475000 378.716250 translate
0.000000 rotate
0.000000 0.000000 m /f glyphshow
3.168457 0.000000 m /a glyphshow
8.683594 0.000000 m /s glyphshow
13.372559 0.000000 m /t glyphshow
16.901367 0.000000 m /g glyphshow
22.614258 0.000000 m /r glyphshow
26.064453 0.000000 m /e glyphshow
31.601562 0.000000 m /e glyphshow
37.138672 0.000000 m /d glyphshow
42.851562 0.000000 m /y glyphshow
grestore
0.498 1.000 0.000 setrgbcolor
gsave
87.975 368.648 m
100.575 368.648 l
stroke
grestore
0.000 setgray
gsave
110.475000 365.497500 translate
0.000000 rotate
0.000000 0.000000 m /a glyphshow
5.515137 0.000000 m /g glyphshow
11.228027 0.000000 m /g glyphshow
16.940918 0.000000 m /M glyphshow
24.706055 0.000000 m /u glyphshow
30.410156 0.000000 m /l glyphshow
32.910645 0.000000 m /t glyphshow
36.439453 0.000000 m /i glyphshow
38.939941 0.000000 m /l glyphshow
41.440430 0.000000 m /e glyphshow
46.977539 0.000000 m /v glyphshow
52.303711 0.000000 m /e glyphshow
57.840820 0.000000 m /l glyphshow
grestore
0.000 1.000 1.000 setrgbcolor
gsave
87.975 355.429 m
100.575 355.429 l
stroke
grestore
0.000 setgray
gsave
110.475000 352.278750 translate
0.000000 rotate
0.000000 0.000000 m /w glyphshow
7.360840 0.000000 m /a glyphshow
12.875977 0.000000 m /l glyphshow
15.376465 0.000000 m /k glyphshow
20.588379 0.000000 m /t glyphshow
24.117188 0.000000 m /r glyphshow
27.817383 0.000000 m /a glyphshow
33.332520 0.000000 m /p glyphshow
grestore
0.498 0.000 1.000 setrgbcolor
gsave
87.975 342.21 m
100.575 342.21 l
stroke
grestore
0.000 setgray
gsave
110.475000 339.060000 translate
0.000000 rotate
0.000000 0.000000 m /e glyphshow
5.537109 0.000000 m /i glyphshow
8.037598 0.000000 m /g glyphshow
13.750488 0.000000 m /e glyphshow
19.287598 0.000000 m /n glyphshow
24.991699 0.000000 m /v glyphshow
30.317871 0.000000 m /e glyphshow
35.854980 0.000000 m /c glyphshow
40.803223 0.000000 m /t glyphshow
44.332031 0.000000 m /o glyphshow
49.838379 0.000000 m /r glyphshow
grestore

end
showpage
